<svg xmlns="http://www.w3.org/2000/svg" width="37" height="33" preserveAspectRatio="xMidYMid">
  <path fill-rule="evenodd" d="M35.662 10.432l.055.053-.795.773-9.53-9.271.794-.772.056.054c2.506-1.904 6.236-1.659 8.68.718 2.445 2.379 2.697 6.007.74 8.445zm-1.527-7.68C32.038.721 29.22.498 27.003 2.009l7.9 7.685c1.59-2.126 1.338-4.903-.768-6.942zm-.563 15.138c0 3.962-1.635 7.55-4.279 10.181l4.078 3.952-.969.939-4.11-3.982.017-.017c-2.637 2.195-6.059 3.53-9.809 3.53-3.566 0-6.837-1.206-9.418-3.212l-3.799 3.681-.969-.939 3.738-3.622c-2.846-2.657-4.624-6.38-4.624-10.511 0-8.065 6.748-14.602 15.072-14.602 8.324 0 15.072 6.537 15.072 14.602zM18.5 4.616c-7.567 0-13.702 5.944-13.702 13.274 0 7.331 6.135 13.275 13.702 13.275s13.702-5.944 13.702-13.275c0-7.33-6.135-13.274-13.702-13.274zm-6.851 15.928v-1.326H18.5V8.598h1.37v11.946h-8.221zM1.284 10.485l.055-.053c-1.958-2.438-1.706-6.066.739-8.445 2.444-2.377 6.175-2.622 8.68-.718l.056-.054.794.772-9.53 9.271-.794-.773zm1.581-7.733C.759 4.791.507 7.568 2.097 9.694l7.9-7.685C7.78.498 4.962.721 2.865 2.752z" class="cls-2"/>
</svg>
