<?xml version="1.0" encoding="iso-8859-1"?>
<!-- Generator: Adobe Illustrator 19.0.0, SVG Export Plug-In . SVG Version: 6.00 Build 0)  -->
<svg version="1.1" xmlns="http://www.w3.org/2000/svg" xmlns:xlink="http://www.w3.org/1999/xlink" x="0px" y="0px"
	 viewBox="1572.6 -490.6 143.802 168" style="enable-background:new 1572.6 -490.6 143.802 168;" xml:space="preserve">
<g id="Layer_1">
	<g id="computer_1_">
		<g>
			<path style="fill:#383433;" d="M1711.6-387c0,29.9-57.5,54.8-59.9,55.8c-2.9,1.2-5.1,2.2-6.2,2.6c-0.1,0.1-0.2,0.2-0.3,0.3h-1.3
				c0-0.2-0.1-0.3-0.3-0.4c-1-0.4-3.2-1.4-6.2-2.7c-2.4-1-59.9-25.9-59.9-55.8v-90c0-4.4,3.6-7.9,7.9-7.9h118.2
				c4.4,0,7.9,3.5,7.9,7.9L1711.6-387L1711.6-387z"/>
			<g>
				<path style="fill:#383433;" d="M1707.1-490.6H1582c-5.2,0-9.4,4.2-9.4,9.4v95.3c0,32.4,61.4,58.9,64,60c2.8,1.2,5.1,2.2,6.2,2.7
					v0.1c0,0.3,0.2,0.5,0.5,0.5h1.1l0,0h1.3c0.3,0,0.5-0.2,0.5-0.5l0,0c1.2-0.5,3.4-1.5,6.2-2.7c2.6-1.1,64-27.7,64-60v-95.3
					C1716.5-486.4,1712.3-490.6,1707.1-490.6z M1715.5-385.9c0,31.7-60.8,58-63.4,59.1c-3,1.3-5.4,2.3-6.5,2.8
					c-0.2,0.1-0.3,0.2-0.3,0.4h-1.4c0-0.2-0.1-0.3-0.3-0.4c-1-0.5-3.4-1.5-6.5-2.8c-2.6-1.1-63.4-27.4-63.4-59.1v-95.3
					c0-4.6,3.8-8.4,8.4-8.4h125.1c4.6,0,8.4,3.8,8.4,8.4L1715.5-385.9L1715.5-385.9z"/>
			</g>
		</g>
		<path style="fill:#FFFFFF;" d="M1612.2-408.3h64.1c3.8,0,6.8-3,6.8-6.8v-46.8c0-3.8-3.1-6.8-6.8-6.8h-64.1c-3.8,0-6.8,3.1-6.8,6.8
			v46.8C1605.4-411.4,1608.4-408.3,1612.2-408.3z M1610.3-461.9c0-1,0.8-1.8,1.8-1.8h64.1c1,0,1.8,0.8,1.8,1.8v46.8
			c0,1-0.8,1.8-1.8,1.8h-64.1c-1,0-1.8-0.8-1.8-1.8V-461.9z M1679.5-406h-69.7c-2.3,0-4.3,1.9-4.3,4.3c0,2.3,1.9,4.3,4.3,4.3h69.7
			c2.4,0,4.3-1.9,4.3-4.3C1683.7-404.1,1681.8-406,1679.5-406z M1612.1-399.8c-1,0-1.9-0.8-1.9-1.9c0-1,0.8-1.9,1.9-1.9
			c1,0,1.9,0.8,1.9,1.9C1613.9-400.7,1613.1-399.8,1612.1-399.8z M1618.1-399.8c-1,0-1.9-0.8-1.9-1.9c0-1,0.8-1.9,1.9-1.9
			c1,0,1.9,0.8,1.9,1.9C1620-400.7,1619.1-399.8,1618.1-399.8z"/>
		<g>
			<g>
				<path style="fill:#FFFFFF;" d="M1696.2-381c0,0.4-0.2,0.6-0.5,0.6H1664c-0.3,0-0.5-0.3-0.5-0.6l0,0c0-0.4,0.2-0.6,0.5-0.6h31.7
					C1695.9-381.6,1696.2-381.3,1696.2-381L1696.2-381z"/>
			</g>
			<g>
				<path style="fill:#FFFFFF;" d="M1592.9-381c0,0.4,0.2,0.6,0.5,0.6h31.7c0.3,0,0.5-0.3,0.5-0.6l0,0c0-0.4-0.2-0.6-0.5-0.6h-31.7
					C1593.2-381.6,1592.9-381.3,1592.9-381L1592.9-381z"/>
			</g>
		</g>
		<g id="text_37_">
			<g>
				<path style="fill:#FFFFFF;" d="M1639-366.3c-0.4-0.7-1.4-0.6-2.2,0.8l-5,8.7h-1.5l2.7-4.7h-2.3l-1,1.7
					c-4.5,7.8-12.3,2.9-9.5-1.8c1-1.7,2.5-1.8,2.5-1.8l0.3,1.1c0,0-1.1,0.3-1.7,1.3c-2,3.4,3.7,6.6,7.2,0.5l3.1-5.3
					c-1.6,0.8-4.2,0.9-4.9,2.1c-0.7,1.3,0.6,1.8,0.6,1.8l-0.6,1c-1-0.4-2.2-1.6-1.2-3.3c1.2-2.2,4.6-1.4,7.2-3.5l0.8,1.3l-2.4,4.2
					h2.3l2.2-3.7c1.9-3.2,5-1.7,5,0.2c0,0.5-0.4,0.9-0.9,0.9s-0.9-0.4-0.9-0.9C1638.8-366,1638.9-366.1,1639-366.3z M1639.4-360
					c0.2,0.1,0.5,0.3,0.6,0.5c-1.3,1.5-2.7,2.8-3.9,2.8c-1.2,0-1.7-1-1-2.2l3-5.3h1.5l-3.2,5.7c-0.3,0.6-0.2,0.8,0.2,0.8
					C1637.3-357.7,1638.3-358.7,1639.4-360L1639.4-360z"/>
				<path style="fill:#FFFFFF;" d="M1635.7-353.6l6-10.5h1.5l-0.3,0.5c1.5-1.4,3.8-0.6,2.4,1.8l-1.7,2.9c-0.2,0.3-0.4,0.7-0.6,1.1
					c0.9-0.3,1.9-1.1,2.8-2.1l0.1-0.1c0.2,0.1,0.5,0.3,0.6,0.5c-1.2,1.4-2.7,2.8-4.9,2.8h-0.1c-1.4,0-1.7-1.2-1.7-1.2l0.9-0.4
					c0.3,0.6,0.8,0.4,1.1,0l2.3-4c0.4-0.7-0.7-1.5-2.4,0.8l-4.5,7.9L1635.7-353.6L1635.7-353.6z"/>
				<path style="fill:#FFFFFF;" d="M1645.3-357.9l0.9-0.5c0,0,0.2,0.6,0.7,0.6c1.4,0,1.1-2.8,1.7-4.4c-0.5,0.7-1.3,1.8-2.2,2.8
					c-0.2-0.1-0.4-0.3-0.6-0.5c1.4-1.6,2.7-3.6,3.4-4.4l1.1,0.6c-0.9,1.9-0.8,4.1-1.3,5.6c0.6-0.4,1.3-1,1.8-1.6l0.1-0.1
					c0.2,0.1,0.5,0.3,0.6,0.5c-1.1,1.3-2.7,2.5-4.2,2.8l0,0c-0.1,0-0.3,0-0.4,0C1645.6-356.7,1645.3-357.9,1645.3-357.9z"/>
				<path style="fill:#FFFFFF;" d="M1652.5-364.8h1.4l1.4-2.5h1.5l-1.4,2.5h1.3l-0.4,0.7h-1.2l-3.2,5.7c-0.3,0.6-0.2,0.8,0.2,0.8
					c0.7,0,1.7-1,2.8-2.3l0.1-0.1c0.2,0.1,0.5,0.3,0.6,0.5c-1.3,1.5-2.7,2.8-3.9,2.8c-1.2,0-1.7-1-1-2.2l3-5.3h-1.4L1652.5-364.8z"
					/>
				<path style="fill:#FFFFFF;" d="M1656.1-359.7l-0.1,0.3c-0.7,1.2-0.1,1.8,0.8,1.8c1.1,0,2.5-1,3.6-2.3l0.1-0.1
					c0.2,0.1,0.5,0.3,0.6,0.5c-1.3,1.5-3,2.8-4.7,2.8c-1.8,0-2.6-1.5-1.7-3.1l1.6-2.7c0.6-1.1,1.6-1.7,2.8-1.7c1.2,0,2,1,1.2,2.4
					l-0.2,0.4C1658.9-359.5,1657.1-359.3,1656.1-359.7z M1656.6-360.4c0.6,0.2,1.5,0.2,2.3-1l0.2-0.4c0.9-1.6-0.6-1.8-1.5-0.3
					L1656.6-360.4z"/>
				<path style="fill:#FFFFFF;" d="M1663.8-361.6c0.2-0.3,0.1-0.6-0.1-0.9l-0.2-0.2c-1.2,1.6-1.8,2.4-2.5,3.2
					c-0.2-0.1-0.4-0.3-0.6-0.5c1-1.2,1.9-2.4,2.6-3.4l-0.1-0.2c-0.5-0.7-0.5-1.6,0.4-2.3l0.8,0.9c-0.3,0.3-0.3,0.6-0.1,0.9l0.8,1
					c0.5,0.6,0.7,1.1,0.2,2.1l-1.5,2.7c-0.3,0.6-0.2,0.8,0.2,0.8c0.7,0,1.7-1,2.8-2.3l0.1-0.1c0.2,0.1,0.5,0.3,0.6,0.5
					c-1.3,1.5-2.7,2.8-3.9,2.8c-1.2,0-1.7-1-1-2.2L1663.8-361.6z"/>
				<path style="fill:#FFFFFF;" d="M1635.3-351.1v1.3c-0.2-0.3-0.4-0.5-0.6-0.6s-0.4-0.2-0.6-0.2c-0.4,0-0.7,0.1-0.9,0.4
					c-0.2,0.3-0.4,0.6-0.4,1s0.1,0.7,0.4,1c0.2,0.3,0.5,0.4,0.9,0.4c0.2,0,0.4-0.1,0.6-0.2s0.4-0.3,0.6-0.6v1.3
					c-0.4,0.2-0.8,0.3-1.2,0.3c-0.7,0-1.2-0.2-1.7-0.6c-0.4-0.4-0.7-1-0.7-1.6s0.2-1.2,0.7-1.6c0.4-0.4,1-0.7,1.7-0.7
					C1634.5-351.4,1634.9-351.3,1635.3-351.1z"/>
				<path style="fill:#FFFFFF;" d="M1636-349.2c0-0.6,0.2-1.1,0.7-1.6c0.4-0.4,1-0.6,1.6-0.6s1.2,0.2,1.6,0.7c0.4,0.4,0.7,1,0.7,1.6
					s-0.2,1.2-0.7,1.6c-0.4,0.4-1,0.6-1.6,0.6s-1.2-0.2-1.6-0.7C1636.3-348,1636-348.6,1636-349.2z M1637-349.2c0,0.4,0.1,0.8,0.3,1
					c0.2,0.3,0.5,0.4,0.9,0.4s0.7-0.1,0.9-0.4c0.2-0.2,0.3-0.6,0.3-1s-0.1-0.7-0.3-1c-0.2-0.2-0.5-0.4-0.9-0.4s-0.7,0.1-0.9,0.4
					C1637.2-349.9,1637-349.6,1637-349.2z"/>
				<path style="fill:#FFFFFF;" d="M1644.8-354.5h1v7.4h-1v-0.4c-0.4,0.4-0.8,0.6-1.3,0.6c-0.6,0-1.1-0.2-1.5-0.6s-0.6-1-0.6-1.6
					s0.2-1.2,0.6-1.6s0.9-0.6,1.4-0.6s0.9,0.2,1.3,0.6L1644.8-354.5L1644.8-354.5z M1642.4-349.2c0,0.4,0.1,0.7,0.3,1
					c0.2,0.3,0.5,0.4,0.8,0.4c0.4,0,0.7-0.1,0.9-0.4c0.2-0.3,0.3-0.6,0.3-1s-0.1-0.7-0.3-1c-0.2-0.3-0.5-0.4-0.9-0.4
					c-0.3,0-0.6,0.1-0.8,0.4C1642.5-349.9,1642.4-349.6,1642.4-349.2z"/>
				<path style="fill:#FFFFFF;" d="M1646.8-353.1c0-0.2,0.1-0.3,0.2-0.4s0.3-0.2,0.5-0.2s0.3,0.1,0.5,0.2c0.1,0.1,0.2,0.3,0.2,0.5
					s-0.1,0.3-0.2,0.5c-0.1,0.1-0.3,0.2-0.5,0.2s-0.3-0.1-0.5-0.2C1646.9-352.8,1646.8-352.9,1646.8-353.1z M1648-351.3v4.3h-1v-4.3
					H1648z"/>
				<path style="fill:#FFFFFF;" d="M1649.2-351.3h1v0.4c0.3-0.3,0.7-0.5,1.2-0.5s0.9,0.2,1.2,0.5c0.2,0.3,0.4,0.7,0.4,1.3v2.6h-1
					v-2.4c0-0.4-0.1-0.7-0.2-0.9c-0.1-0.2-0.3-0.2-0.6-0.2c-0.3,0-0.6,0.1-0.7,0.3c-0.1,0.2-0.2,0.6-0.2,1.1v2.1h-1v-4.3H1649.2z"/>
				<path style="fill:#FFFFFF;" d="M1658.3-347.2c0,0.2,0,0.4,0,0.5c0,0.2,0,0.3-0.1,0.4c-0.1,0.3-0.2,0.6-0.4,0.8
					c-0.4,0.4-0.9,0.7-1.6,0.7c-0.6,0-1-0.2-1.4-0.5s-0.6-0.8-0.7-1.3h1c0,0.2,0.1,0.4,0.2,0.5c0.2,0.3,0.5,0.4,0.9,0.4
					c0.7,0,1.1-0.4,1.1-1.3v-0.6c-0.4,0.4-0.8,0.6-1.4,0.6s-1.1-0.2-1.4-0.6c-0.4-0.4-0.6-1-0.6-1.6s0.2-1.1,0.5-1.6
					c0.4-0.5,0.9-0.7,1.5-0.7c0.5,0,1,0.2,1.3,0.6v-0.5h1L1658.3-347.2L1658.3-347.2z M1657.3-349.2c0-0.4-0.1-0.7-0.3-1
					c-0.2-0.3-0.5-0.4-0.9-0.4s-0.7,0.1-0.9,0.4c-0.2,0.2-0.3,0.6-0.3,1s0.1,0.7,0.3,1c0.2,0.3,0.5,0.4,0.9,0.4s0.7-0.1,0.9-0.4
					C1657.2-348.5,1657.3-348.8,1657.3-349.2z"/>
			</g>
			<g>
				<path style="fill:#FFFFFF;" d="M1625.6-453.2h1.5v11.1h-1.5V-453.2z"/>
				<path style="fill:#FFFFFF;" d="M1631.8-453.2h1.4l1.5,4.4c0.4,1.2,0.8,2.6,1.1,4c-0.1-0.9-0.2-1.6-0.3-2.3
					c-0.1-0.7-0.1-1.3-0.1-2v-4.1h1.5v11.1h-1.4l-1.7-5c-0.2-0.5-0.3-0.9-0.4-1.4s-0.3-1-0.4-1.5c0-0.1,0-0.1,0-0.2s0-0.2-0.1-0.3
					c0,0.1,0,0.2,0,0.3c0,0.1,0,0.2,0,0.2l0.1,1.1l0.1,1.4c0,0.1,0,0.2,0,0.3c0,0.1,0,0.2,0,0.4l0.1,4.8h-1.5L1631.8-453.2
					L1631.8-453.2z"/>
				<path style="fill:#FFFFFF;" d="M1638.7-453.2h4v1.3h-2.5v3.5h2.2v1.3h-2.2v3.8h2.5v1.3h-4V-453.2z"/>
				<path style="fill:#FFFFFF;" d="M1644-453.2h4v1.3h-2.5v3.5h2.2v1.3h-2.2v3.8h2.5v1.3h-4V-453.2z"/>
				<path style="fill:#FFFFFF;" d="M1649.4-453.2h1.8c0.6,0,1,0.1,1.4,0.2s0.7,0.3,0.9,0.6c0.4,0.5,0.7,1.1,0.9,1.8
					c0.2,0.7,0.3,1.7,0.3,3.1c0,1.2-0.1,2.2-0.3,3c-0.2,0.7-0.5,1.3-0.9,1.7c-0.5,0.5-1.5,0.7-2.9,0.7h-1.2L1649.4-453.2
					L1649.4-453.2z M1650.9-443.4c0.9,0,1.5-0.3,1.8-0.8c0.3-0.6,0.5-1.6,0.5-3.2c0-1.7-0.2-2.9-0.5-3.5s-0.9-1-1.7-1h-0.2v8.5
					H1650.9z"/>
				<path style="fill:#FFFFFF;" d="M1660.8-453.2h1.2l2.4,11.1h-1.5l-0.4-2.2h-2.2l-0.4,2.2h-1.4L1660.8-453.2z M1662.3-445.4
					l-0.3-1.8c-0.2-1.2-0.4-2.5-0.5-3.8c-0.1,0.7-0.2,1.3-0.3,2c-0.1,0.7-0.2,1.4-0.4,2.2l-0.3,1.4L1662.3-445.4L1662.3-445.4z"/>
				<path style="fill:#FFFFFF;" d="M1635-435.9v1.3l-4.4,2.1l4.4,2.1v1.3l-5.8-2.8v-1.1L1635-435.9z"/>
				<path style="fill:#FFFFFF;" d="M1637.9-438.7v4.8c0.5-0.5,1.1-0.8,1.8-0.8c0.8,0,1.4,0.3,1.9,0.8c0.5,0.6,0.8,1.3,0.8,2.1
					c0,0.9-0.3,1.6-0.8,2.1c-0.5,0.6-1.1,0.8-1.9,0.8c-0.6,0-1.2-0.2-1.7-0.7v0.6h-1.3v-9.7L1637.9-438.7L1637.9-438.7z M1641-431.7
					c0-0.5-0.1-1-0.4-1.3s-0.7-0.5-1.1-0.5c-0.5,0-0.9,0.2-1.2,0.5c-0.3,0.3-0.4,0.8-0.4,1.3s0.1,1,0.4,1.3s0.7,0.5,1.1,0.5
					s0.8-0.2,1.1-0.5C1640.8-430.8,1641-431.2,1641-431.7z"/>
				<path style="fill:#FFFFFF;" d="M1643.6-434.6h1.3v0.5c0.2-0.2,0.4-0.4,0.6-0.5s0.4-0.1,0.7-0.1c0.3,0,0.7,0.1,1.1,0.3l-0.6,1.2
					c-0.2-0.2-0.5-0.3-0.7-0.3c-0.7,0-1.1,0.5-1.1,1.6v2.9h-1.3V-434.6L1643.6-434.6z"/>
				<path style="fill:#FFFFFF;" d="M1652.2-437.8l1.1,0.5l-5.1,11.7l-1.1-0.5L1652.2-437.8z"/>
				<path style="fill:#FFFFFF;" d="M1654.1-429.1v-1.3l4.3-2.1l-4.3-2.1v-1.3l5.8,2.8v1.1L1654.1-429.1z"/>
			</g>
		</g>
		<path style="fill:#FFFFFF;" d="M1650.1-387.3c0,0,0.2-1.2,0.3-1.6c0.8-0.4,2-0.7,3.2,0c0.8,0.4,1.2,1.2,1.3,2.1
			c0.1,1.1-0.4,2.2-1.4,3.1c-1.2,1.1-3.4,2-5,2.5c0.3-0.5,0.5-1.1,0.7-1.5c1.3-0.5,2.7-1.2,3.5-1.9c0.7-0.6,1-1.3,1-2
			c0-0.5-0.3-0.9-0.7-1.2C1651.7-388.5,1650.1-387.3,1650.1-387.3z M1639.8-379.9h6.8c1.7-1.2,2.2-3.2,2.4-4c0.3-1.1,0.9-4.7,1-5.7
			c-0.6,0-13.1,0-13.7,0c0.2,1,0.8,4.7,1,5.7C1637.6-383,1638.1-381.1,1639.8-379.9z M1649.5-377.5c2.9-0.5,4.8-1.3,5.8-1.9
			c-1.7,0-22.3,0-24,0c1,0.5,2.9,1.3,5.8,1.9H1649.5z M1649.4-377c-0.8,0-11.3,0-12.2,0c0.3,0.4,0.6,1,0.7,1.1c0.3,0,10.5,0,10.8,0
			C1648.8-376,1649.2-376.6,1649.4-377z"/>
	</g>
</g>
<g id="Layer_6" style="display:none;">
	<g id="glasses_1_" style="display:inline;">
		<g>
			<path style="fill:#383433;" d="M2231.6-488.5h-121.5c-4.2,0-7.6,3.4-7.6,7.6c0,0,0,49.4,0,92.5c0,30.8,61.2,56.8,61.2,56.8
				c3.8,1.6,7,3,7,3l0,0h0.1h0.1c0,0,3.1-1.4,7-3c0,0,61.2-26.1,61.2-56.8c0-43.2,0-92.5,0-92.5
				C2239.2-485.1,2235.8-488.5,2231.6-488.5z M2236.1-388.4c0,28.4-58.8,53.8-59.4,54c-1.9,0.8-3.7,1.6-4.9,2.1
				c-0.3,0.2-0.7,0.3-0.9,0.4c-0.3-0.1-0.6-0.3-0.9-0.4c-1.3-0.5-3-1.3-4.9-2.1c-0.6-0.3-59.4-25.6-59.4-54V-481
				c0-2.5,2-4.5,4.5-4.5h121.5c2.5,0,4.5,2,4.5,4.5L2236.1-388.4L2236.1-388.4z"/>
		</g>
		<g>
			<g>
				<path style="fill:#383433;" d="M2167.7-430.3c1.4,0,2.7,0,4,0c0.1,0,0.2,0,0.3,0s0.2,0,0.3,0c1.2,0,2.6,0,4,0
					c-1.5,15.9,14.3,23.8,26.7,15.4c2.5-5.7,6.1-13.9,9.1-16.8c-4.9-8-27.1-6.5-34.7-1.7c-1.5,0.1-2.3,0-3.3,0l0,0
					c-0.8,0-1.5,0-2.1,0s-1.2,0-2,0l0,0c-1,0-1.7,0.1-3.3,0c-7.5-4.8-29.8-6.2-34.7,1.7c3,2.9,6.6,11.1,9.1,16.8
					C2153.3-406.5,2169.2-414.4,2167.7-430.3z M2206-432.7h2.6c0.4,0,0.7,0.4,0.7,0.9s-0.3,0.9-0.7,0.9h-2.6c-0.4,0-0.7-0.4-0.7-0.9
					C2205.3-432.3,2205.6-432.7,2206-432.7z M2180.4-431.7c6.7-4.5,22.1-6.2,23.8,2.8C2208.2-408.1,2173.4-408.7,2180.4-431.7z
					 M2137.8-430.9h-2.6c-0.4,0-0.7-0.4-0.7-0.9s0.3-0.9,0.7-0.9h2.6c0.4,0,0.7,0.4,0.7,0.9S2138.2-430.9,2137.8-430.9z
					 M2139.6-428.9c1.8-9,17.1-7.3,23.8-2.8C2170.4-408.7,2135.5-408.1,2139.6-428.9z"/>
			</g>
		</g>
		<path id="moustache_1_" style="fill:#383433;" d="M2193.7-369.8c0.1,1.9-5.1,6.4-7.5,6c-3.8-0.5-9.1-9-15.3-2.2
			c-6.1-6.8-11.4,1.6-15.3,2.2c-2.4,0.3-7.6-4.1-7.5-6c0,0-0.4,2.2,0.6,4.8c3.2,9.2,16.9,8.4,22.2,1.9c5.3,6.5,19,7.3,22.2-1.9
			C2194.1-367.6,2193.7-369.8,2193.7-369.8z"/>
		<g id="text_13_">
			<g>
				<path style="fill:#383433;" d="M2124-404.7h3.6v13h3.1v-13h3.6v28.2h-3.6v-11.6h-3.1v11.6h-3.6V-404.7z"/>
				<path style="fill:#383433;" d="M2139.5-404.7h3.6v28.2h-3.6V-404.7z"/>
				<path style="fill:#383433;" d="M2148.4-404.7h7.9c1.4,0,2.4,1.1,2.4,2.4v10.6c0,1.3-1.1,2.4-2.4,2.4h-4.3v12.8h-3.6v-12.8
					V-404.7L2148.4-404.7z M2155.1-401.1h-3.1v8.1h3.1V-401.1z"/>
				<path style="fill:#383433;" d="M2166.7-385v4.9h3.1v-9.1h-4.3c-1.4,0-2.4-1.2-2.4-2.4v-10.7c0-1.4,1-2.4,2.4-2.4h5.5
					c1.4,0,2.4,1,2.4,2.4v5.9h-3.6v-4.7h-3.1v8.2h4.3c1.4,0,2.4,1.1,2.4,2.4v11.6c0,1.3-1.1,2.4-2.4,2.4h-5.5
					c-1.3,0-2.4-1.1-2.4-2.4v-6.1L2166.7-385L2166.7-385z"/>
				<path style="fill:#383433;" d="M2180.7-401.1h-3.2v-3.6h10.1v3.6h-3.2v24.6h-3.6L2180.7-401.1L2180.7-401.1z"/>
				<path style="fill:#383433;" d="M2200.9-376.5h-9.3v-28.2h9.1v3.6h-5.4v7.8h3.8v3.6h-3.8v9.5h5.7L2200.9-376.5L2200.9-376.5z"/>
				<path style="fill:#383433;" d="M2212.4-388.5h-3.1v12h-3.6v-28.2h7.5c1.4,0,2.4,1.1,2.4,2.4v9.8c0,1-0.5,1.8-1.2,2
					c1.1,0.2,1.7,1.4,1.7,2.4v11.6h-3.6L2212.4-388.5L2212.4-388.5z M2209.3-392.1h2.6v-9h-2.6V-392.1z"/>
			</g>
			<g>
				<path style="fill:#383433;" d="M2198.9-454.8v1.5h-0.4c0-0.2,0-0.4-0.1-0.6c0-0.1-0.1-0.3-0.2-0.4c-0.1-0.1-0.2-0.2-0.4-0.2
					h-0.6v8.8c0,0.1,0,0.2,0.1,0.3c0,0.1,0.1,0.1,0.1,0.1s0.1,0,0.2,0v0.4h-1.7v-0.4c0.1,0,0.1,0,0.2,0c0,0,0.1,0,0.1-0.1
					s0.1-0.2,0.1-0.3v-8.8h-0.6c-0.2,0-0.3,0.1-0.4,0.2c-0.1,0.1-0.2,0.3-0.2,0.4c-0.1,0.2-0.1,0.4-0.1,0.6h-0.4v-1.5H2198.9
					L2198.9-454.8z"/>
				<path style="fill:#383433;" d="M2204.2-445.3v0.4h-1.7v-0.4c0.1,0,0.1,0,0.2,0c0,0,0.1,0,0.1-0.1s0.1-0.2,0.1-0.3v-4h-2.1v4
					c0,0.1,0,0.2,0.1,0.3c0,0.1,0.1,0.1,0.1,0.1c0.1,0,0.1,0,0.2,0v0.4h-1.6v-0.4c0.1,0,0.1,0,0.2,0c0,0,0.1,0,0.1-0.1
					s0.1-0.2,0.1-0.3v-8.3c0-0.1,0-0.2-0.1-0.3c0-0.1-0.1-0.1-0.1-0.1s-0.1,0-0.2,0v-0.3h1.6v0.3c-0.1,0-0.1,0-0.2,0l-0.1,0.1
					c0,0.1-0.1,0.2-0.1,0.3v4h2.1v-4c0-0.1,0-0.2-0.1-0.3c0-0.1-0.1-0.1-0.1-0.1s-0.1,0-0.2,0v-0.3h1.7v0.3c-0.1,0-0.1,0-0.2,0
					l-0.1,0.1c0,0.1-0.1,0.2-0.1,0.3v8.3c0,0.1,0,0.2,0.1,0.3c0,0.1,0.1,0.1,0.1,0.1C2204.1-445.3,2204.2-445.3,2204.2-445.3z"/>
				<path style="fill:#383433;" d="M2209.1-445.7c0,0.1,0.1,0.2,0.1,0.3c0.1,0.1,0.1,0.1,0.2,0.1s0.2,0,0.2,0v0.3h-2v-0.3
					c0.1,0,0.2,0,0.2,0l0.1-0.1c0-0.1,0-0.1,0-0.3c0,0,0-0.2-0.1-0.5s-0.1-0.7-0.2-1.2h-1.8c-0.1,0.5-0.2,0.9-0.2,1.2
					c-0.1,0.3-0.1,0.5-0.1,0.5c0,0.1,0,0.2,0,0.3s0.1,0.1,0.1,0.1c0.1,0,0.1,0,0.2,0v0.3h-1.3v-0.3c0.1,0,0.2,0,0.2,0
					c0.1,0,0.1-0.1,0.2-0.1c0.1-0.1,0.1-0.1,0.1-0.3c0,0,0-0.1,0.1-0.4s0.1-0.6,0.2-1s0.2-0.9,0.3-1.4s0.2-1.1,0.3-1.7l0.8-4.5h0.7
					c0.3,1.7,0.5,3.2,0.7,4.5c0.1,0.6,0.2,1.1,0.3,1.7c0.1,0.5,0.2,1,0.2,1.4s0.1,0.8,0.2,1C2209.1-445.8,2209.1-445.7,2209.1-445.7
					z M2206.1-447.7h1.7c-0.1-0.4-0.1-0.8-0.2-1.2c-0.1-0.4-0.1-0.9-0.2-1.3c-0.1-0.4-0.1-0.9-0.2-1.3c-0.1-0.4-0.1-0.8-0.2-1.1
					c-0.1,0.3-0.1,0.7-0.2,1.1c-0.1,0.4-0.1,0.8-0.2,1.3c-0.1,0.4-0.2,0.9-0.2,1.3C2206.2-448.5,2206.2-448.1,2206.1-447.7z"/>
				<path style="fill:#383433;" d="M2213.6-454.8h1.2v0.3c-0.1,0-0.2,0-0.2,0l-0.1,0.1c0,0.1-0.1,0.2-0.1,0.3v9.1h-1.2l-2.3-7.9v7.1
					c0,0.1,0,0.2,0.1,0.3s0.1,0.1,0.1,0.1c0.1,0,0.1,0,0.2,0v0.4h-1.2v-0.4c0.1,0,0.1,0,0.2,0l0.1-0.1c0-0.1,0.1-0.1,0.1-0.3v-8.3
					c0-0.1,0-0.2-0.1-0.3c0-0.1-0.1-0.1-0.1-0.1c-0.1,0-0.1,0-0.2,0v-0.3h1.4l2.4,8.3v-7.6c0-0.1,0-0.2-0.1-0.3
					c0-0.1-0.1-0.1-0.1-0.1c-0.1,0-0.1,0-0.2,0L2213.6-454.8L2213.6-454.8z"/>
				<path style="fill:#383433;" d="M2222.4-445.7c0,0.1,0.1,0.2,0.1,0.3s0.1,0.1,0.2,0.1s0.2,0,0.2,0v0.3h-2v-0.3c0.1,0,0.2,0,0.2,0
					l0.1-0.1c0-0.1,0-0.1,0-0.3c0,0,0-0.2-0.1-0.5s-0.1-0.7-0.2-1.2h-1.8c-0.1,0.5-0.2,0.9-0.2,1.2c-0.1,0.3-0.1,0.5-0.1,0.5
					c0,0.1,0,0.2,0,0.3c0,0.1,0.1,0.1,0.1,0.1c0.1,0,0.1,0,0.2,0v0.3h-1.3v-0.3c0.1,0,0.2,0,0.2,0c0.1,0,0.1-0.1,0.2-0.1
					c0.1-0.1,0.1-0.1,0.1-0.3c0,0,0-0.1,0.1-0.4c0-0.3,0.1-0.6,0.2-1s0.2-0.9,0.3-1.4c0.1-0.5,0.2-1.1,0.3-1.7l0.8-4.5h0.7
					c0.3,1.7,0.5,3.2,0.7,4.5c0.1,0.6,0.2,1.1,0.3,1.7c0.1,0.5,0.2,1,0.2,1.4s0.1,0.8,0.2,1C2222.4-445.8,2222.4-445.7,2222.4-445.7
					z M2219.3-447.7h1.7c-0.1-0.4-0.1-0.8-0.2-1.2c-0.1-0.4-0.1-0.9-0.2-1.3s-0.1-0.9-0.2-1.3s-0.1-0.8-0.2-1.1
					c-0.1,0.3-0.1,0.7-0.2,1.1s-0.1,0.8-0.2,1.3c-0.1,0.4-0.2,0.9-0.2,1.3C2219.5-448.5,2219.4-448.1,2219.3-447.7z"/>
			</g>
			<g>
				<path style="fill:#383433;" d="M2123.7-465.6c-0.8-0.4-1.7-0.6-2.5-0.6c-3.1,0-5.9,2.6-5.9,6.6c0,4.7,3.2,8.4,9.6,8.4
					c0.1-11,5.7-24.5,14.4-24.5c4,0,6,3.1,6,7.1c0,7.1-6.1,17.3-17.2,18.9c0,5.3,1,9.6,4,10.4c-0.1-0.8-0.2-1.7-0.2-2.5
					c0-5,2.4-10,6.6-10c2.9,0,4.3,2.3,4.3,5.2c0,3.7-2.5,8.1-7.5,9c0.8,1.8,2.1,3.2,4,3.7l-1,2.4c-3-0.6-4.9-3-5.8-5.9
					c-4.9-0.5-7.3-5.6-7.6-12c-8.1,0-12.5-4.9-12.5-10.4c0-5.8,4.3-9.3,8.8-9.3c1.3,0,2.6,0.3,3.8,0.9L2123.7-465.6z M2128.2-451.4
					c9.5-1.8,14.1-11.7,14.1-17.7c0-2.8-1-4.8-3-4.8C2133.6-474,2128.9-461.5,2128.2-451.4z M2134.3-442.7c0,1.2,0.1,2.3,0.4,3.5
					c3.6-0.9,5.6-5,5.6-7.9c0-1.7-0.7-3-2.1-3C2135.8-450.1,2134.3-446.5,2134.3-442.7z"/>
				<path style="fill:#383433;" d="M2155.6-454.5c0.1,0,0.2,0,0.2,0.2c-0.2,0.6-0.7,1.1-1.6,1.5c0,0.2,0,0.4,0,0.6
					c0,3.6-1.9,7.7-4.7,7.7c-2.8,0-4-2.6-4-5.5c0-3.9,2.1-8.5,5.1-8.5c1.4,0,2.7,0.6,2.7,2.6c-0.5-0.2-1-0.3-1.4-0.3
					c-2.8,0-4.1,3.9-4.1,7.1c0,2.1,0.6,3.8,1.7,3.8c1.5,0,2.6-3.1,2.6-5.7c0-1.5-0.4-2.9-1.2-3.4c0,0,1.1-0.5,1.8-0.8
					C2153.8-454.5,2154.2-454.5,2155.6-454.5z"/>
				<path style="fill:#383433;" d="M2165.6-454.5c0.4,0,0.7-0.1,1-0.2c0.3-8.2,3-17.9,4.9-17.9c1.5,0,2.3,1.7,2.3,4.2
					c0,4.1-2,10.2-5.5,13.5c0,0.6,0,1.3,0,1.9c0,4,0.8,7.1,3.2,7.1c0.5,0,1.4-0.1,2.2-2c0.1-0.3,0.2-0.4,0.3-0.4s0.1,0.1,0.1,0.2
					v0.1c0,0.1,0.2,0.1,0.2,0.1c0,1.4-1.3,4.2-3.1,4.2c-3.3,0-4.4-4.4-4.4-9.7v-0.3c-0.7,0.4-1.4,0.7-2.1,0.9v0.4
					c0,3.6-1.9,7.7-4.7,7.7c-2.8,0-4-2.6-4-5.5c0-3.9,2.1-8.5,5.1-8.5c2.5,0,2.7,1.7,2.7,2.3v0.2c-0.5-0.2-1-0.3-1.4-0.3
					c-2.8,0-4.1,3.9-4.1,7.1c0,2.1,0.6,3.8,1.7,3.8c1.5,0,2.6-3.1,2.6-5.7c0-1.5-0.4-2.9-1.2-3.4c0,0,1.1-0.5,1.8-0.8
					C2164.2-454.6,2164.4-454.5,2165.6-454.5z M2168.4-456c2.5-2.8,3.8-8.7,3.8-11.3c0-0.8-0.1-1.3-0.4-1.3
					C2170.7-468.6,2168.9-462.1,2168.4-456z"/>
				<path style="fill:#383433;" d="M2187-453.4c-0.5,0.3-1.2,0.4-1.9,0.4c-0.1,0-0.3,0-0.4,0c-0.4,3.4-2,8.9-6.4,8.9
					c-2,0-3.8-1.5-4.7-5.3c-0.1,0-0.3,0-0.4,0c-0.2,0-0.1-0.4-0.4-0.7l-0.1-0.1c0-0.1,0.2-0.3,0.4-0.3l0.5,0.1
					c0.2-3.9,2.1-7.9,5.1-7.9c1.4,0,2.2,1.2,2.2,2.9c0,2.2-1.4,5-4.8,6.3c0.3,3.1,1.4,4.2,2.7,4.2c3.2,0,4.5-4.5,5-8.4
					c-0.9-0.6-1.3-1.9-1.3-3.1c0-1.3,0.5-2.5,1.5-2.5s1.2,0.7,1.2,1.5c0,0.7-0.2,1.5-0.2,2.1c0,0.5,0.1,0.8,0.3,0.8
					c0.2,0,0.4-0.1,0.7-0.3c1.1-0.7,2.8-2.5,3.1-2.5c0.4,0,1.1,0.8,1.1,1.3c0,0.8-0.6,1.8-1.3,2.3c-0.1,0.9-0.2,1.7-0.2,2.5
					c0,2.7,0.7,5,2.9,5c1.6,0,3.1-1.1,4.2-1.8c0.4-0.3,1.1-0.8,1.4-0.8c0.1,0,0.1,0,0.1,0.1c0,0.2-0.2,0.5-0.7,1.2l0.1,0.6
					c-1.4,2.7-3.4,3.9-5.1,3.9c-2.8,0-4.8-2.8-4.8-7.6C2187-451.6,2187-452.4,2187-453.4L2187-453.4L2187-453.4z M2176.2-450.6
					c2.3-0.8,3.3-3.1,3.3-4.6c0-0.8-0.3-1.3-0.7-1.3C2177.2-456.6,2176.2-453.4,2176.2-450.6z"/>
			</g>
		</g>
	</g>
</g>
<g id="Layer_2" style="display:none;">
	<g id="shield_1_" style="display:inline;">
		<path style="fill:#383433;" d="M807.7-407.7h-3v4.4c1-0.1,2-0.2,3-0.4C807.7-403.8,807.7-407.7,807.7-407.7z M803.9-407.8h-3v4
			c0.9,0.2,1.9,0.4,3,0.4V-407.8z M800-407.8h-3v2.5c0.8,0.5,1.9,1,3,1.3V-407.8z M796.2-405.8v-2h-1.7c-0.5,0-0.6,0.2-0.2,0.6
			C794.2-407.3,794.9-406.6,796.2-405.8z M815.4-407.6h-3v2.7c1.1-0.3,2.1-0.7,3-1V-407.6z M814.7-398.3L814.7-398.3
			c-0.1,0.2-0.3,0.3-0.3,0.5h2.1c1.7-1.9,7.9-8.2,15-7.9c3.3,0.1,5,4.1,4.9,5.4v0.2c0,0.1,0,0.3,0,0.4c0,0.7-0.1,2-0.7,2.5
			c-0.2,0.2-0.4,0.2-0.7,0.2c-0.5,0-20.8,0-20.8,0c0,0.1,0,0.1,0.1,0.2c0.4,1.1,2.3,1.4,3.4,1.5l0,0l0,0c0.2,0,14.9-0.1,17.2,0
			c0.7,0,1.4-0.2,1.9-0.7c1.2-1.1,1.2-3.2,1.2-4.1v-0.2c0.1-1.9-1.9-6.5-5.9-7.1v-0.1v-0.2c0-0.5-0.4-0.8-0.8-0.8H830
			c-0.5,0-0.8,0.4-0.8,0.8v0.2c0,0.1,0,0.1,0,0.1C821.2-406.2,814.9-398.7,814.7-398.3z M838.1-419.3l1.4-2.3v2.8h0.8v-4.2l-2.2-3.8
			c-1.2,0-2.2,1.7-2.2,3.8S836.9-419.3,838.1-419.3z M854-402.4c0-2.2-0.8-4.2-1.9-4.8v9.6C853.3-398.2,854-400.1,854-402.4z
			 M796.6-398.5c0.3,0.4,0.9,0.6,1.4,0.6h14.5c0.5,0,0.9,0,0.9,0s0.1-0.2,0.2-0.4c0.1-0.2,0.5-0.7,0.5-0.7s0.2-0.3,0.5-0.6l4.1-3.7
			c0.3-0.3,0.6-1,0.6-1.4v-1.3c0-0.5-0.3-0.7-0.8-0.5c0,0-8.8,3.9-14.5,3.9s-9.8-3.9-9.8-3.9c-0.3-0.3-0.6-0.2-0.6,0.3v3.2
			c0,0.5,0.2,1.1,0.5,1.5L796.6-398.5z M818.4-407.6h-2.2v1.3c1.4-0.5,2.2-0.9,2.2-0.9C818.9-407.5,818.9-407.6,818.4-407.6z
			 M834.2-414.6h6.9c0.9,0,1.7-0.8,1.7-1.7c0-0.9-0.8-1.7-1.7-1.7h-6.9c-0.9,0-1.7,0.8-1.7,1.7S833.3-414.6,834.2-414.6z
			 M811.6-407.7h-3v3.8c1-0.2,2-0.5,3-0.8V-407.7z M848.1-388.6l5,9.8c-0.9,0.7-1.4,1.8-1.4,3c0,2.2,1.8,3.9,3.9,3.9
			c2.2,0,3.9-1.8,3.9-3.9s-1.8-3.9-3.9-3.9c-0.3,0-0.7,0-1,0.1l-5-9.8c1.9-0.8,3.9-1.3,6-1.3c1.1,0,2.3,0.1,3.3,0.4
			c0.9,0.2,1.8-0.4,2-1.3s-0.4-1.8-1.3-2c-1.3-0.3-2.7-0.5-4.1-0.5c-2.7,0-5.2,0.6-7.6,1.7l-1.7-3.3l0.7-0.4
			c0.4-0.2,0.6-0.7,0.4-1.1l-0.6-1.3c1.2,0.7,2.8,1.1,4.4,1.1v-10.1c-1.4,0-2.6,0.3-3.7,0.8l-4.3-8.4c-0.3,0.5-0.7,0.9-1.3,1.2
			c-3.3,0.3-4.9,2.6-5,2.7s-0.1,0.3-0.1,0.5v0.8c0,0.5,0.4,0.8,0.8,0.8c0.5,0,0.8-0.4,0.8-0.8c0,0,0-0.3,0-0.5
			c0.4-0.5,1.8-1.8,4.2-1.8l3.3,6.5c-0.9,0.7-1.5,1.6-1.8,2.5l-1.2-2.3c-0.2-0.4-0.7-0.6-1.1-0.4l-1.5,0.8c-0.3,0.2-0.5,0.5-0.5,0.8
			v7.4H838c-0.2,0.6-0.5,1.1-1,1.6c-0.7,0.6-1.5,1-2.5,0.9c-1.4,0-7.5,0-16.9,0h-0.3h-0.1l0,0c-1.5-0.1-3.5-0.6-4.1-2
			c0-0.1-0.1-0.3-0.1-0.5h-16.5l-5.5-7h-12.3c-0.5,0-0.8,0.4-0.8,0.8c0,0.5,0.4,0.8,0.8,0.8c0,0,10.7,0,11.5,0
			c0.1,0.1,0.6,0.7,1.2,1.5h-7.3v3.8h10.2c0.9,1.2,1.8,2.3,2.3,2.9c-0.3,0-0.5,0-0.8,0c-5.7,0-10.9,2.6-14.4,7.1
			c-0.6,0.7-0.4,1.8,0.3,2.4s1.8,0.4,2.4-0.3c2.9-3.7,7.1-5.8,11.8-5.8c1.1,0,2.1,0.1,3.1,0.3l-2.9,10.6c-0.1,0-0.1,0-0.2,0
			c-2.2,0-3.9,1.8-3.9,3.9s1.8,3.9,3.9,3.9c2.2,0,3.9-1.8,3.9-3.9c0-1.5-0.8-2.8-2.1-3.5l2.9-10.6c0.8,0.3,1.6,0.6,2.4,1v-4.6
			l21.8,1.8h0.1c0.1,0,0.5,0.1,1.2,0.2h19.8c-2.7,1.6-4.9,4-6.5,6.8c-0.4,0.8-0.2,1.8,0.7,2.3c0.8,0.4,1.8,0.2,2.3-0.7
			C843.9-385.3,845.9-387.3,848.1-388.6z M834.1-389.5L834.1-389.5h-3.3c0.7,0.5,1.3,1,1.8,1.7h1.4c0.2,0.1,0.5,0.4,0.7,1.5h-0.8
			v1.7h4.8v-1.7h-2.3C836-389.3,834.3-389.5,834.1-389.5z M783.7-399.9v-0.8h-1.3v3.8h1.3v-0.8h-0.5v-2.1L783.7-399.9L783.7-399.9z
			 M855.7-388.2c-1.4,0-2.8,0.3-4.1,0.7l2.3,4.6c0.6-0.1,1.1-0.2,1.7-0.2c4,0,7.3,3.3,7.3,7.3s-3.3,7.3-7.3,7.3s-7.3-3.3-7.3-7.3
			c0-2.2,1-4.2,2.6-5.5l-2.3-4.6c-3.2,2.2-5.3,5.9-5.3,10.1c0,6.8,5.5,12.4,12.4,12.4c6.8,0,12.4-5.5,12.4-12.4
			S862.5-388.2,855.7-388.2z M833.8-382.4h4.8v-1.7h-4.8V-382.4z M822.8-375.7c2,0,3.7-1.4,4.1-3.3h-1.8c-0.3,1-1.3,1.6-2.3,1.6
			c-1.1,0-2-0.7-2.3-1.6h-1.8C819.1-377.1,820.8-375.7,822.8-375.7z M833.8-380.1h4.8v-1.7h-4.8V-380.1z M828.2-386.4H815v1.7h13.2
			v6.4c0,0.2-0.1,0.6-0.3,0.9l-2.2,2.3c-0.2,0.2-0.6,0.3-0.8,0.3h-10.6v-11.6c-0.9,0-1.7,0.8-1.7,1.7v0.6c-0.4-0.8-0.9-1.7-1.5-2.4
			h-4.4c1.7,1.6,3,3.7,3.8,6c0.3,0.9,1.2,1.4,2.1,1.1l0,0v4.6c0,0.9,0.8,1.7,1.7,1.7h10.6c0.7,0,1.6-0.4,2-0.9l2.2-2.3
			c0.5-0.5,0.8-1.3,0.8-2v-6.4C829.9-385.6,829.2-386.4,828.2-386.4z M801.1-387.1l-1.4,5c2.3,1.2,3.8,3.6,3.8,6.4
			c0,4-3.3,7.3-7.3,7.3s-7.3-3.3-7.3-7.3s3.3-7.3,7.3-7.3c0.1,0,0.2,0,0.3,0l1.4-5c-0.5-0.1-1.1-0.1-1.6-0.1
			c-6.8,0-12.4,5.5-12.4,12.4s5.5,12.4,12.4,12.4c6.8,0,12.4-5.5,12.4-12.4C808.6-380.9,805.5-385.3,801.1-387.1z M822.8-382.3
			c1.1,0,2,0.7,2.3,1.6h1.8c-0.4-1.9-2.1-3.3-4.1-3.3s-3.7,1.4-4.1,3.3h1.8C820.8-381.6,821.7-382.3,822.8-382.3z M833.8-377.8h1
			c0,0.4-0.1,0.9-0.4,1.1c-0.1,0.1-0.2,0.2-0.5,0.2c-0.2,0-0.3-0.1-0.4-0.2c-0.7-0.7-0.7-3.4-0.7-6.3v-1.2c0-5.7-7.5-6.7-7.8-6.7
			h-0.1l-20.8-1.8v5.2h10v-2.6c0-0.2,0.2-0.4,0.4-0.4s0.4,0.2,0.4,0.4v2.6h0.8v-2.6c0-0.2,0.2-0.4,0.4-0.4s0.4,0.2,0.4,0.4v2.6h0.8
			v-2.6c0-0.2,0.2-0.4,0.4-0.4s0.4,0.2,0.4,0.4v2.6h11c1,0.8,1.7,1.8,1.7,3.3c0,0,0,1.9,0,2.3c0,3.2,0.1,5.3,1.2,6.4
			c0.4,0.4,1,0.6,1.6,0.6c0.7,0,1.3-0.3,1.7-0.8c0.5-0.6,0.7-1.5,0.8-2.2h2v-1.7h-4.8L833.8-377.8L833.8-377.8z"/>
		<g>
			<path style="fill:#383433;" d="M894.2-410.2c-3.3-6.8-6.5-13.2-6-22.4c0.5-9,10.9-23.4,11-23.5l0.3-0.4l-30.9-29.9l-0.4,0.3
				c-6.6,4.8-14.5,7.5-22.1,7.5c-4.7,0-9.2-1-13.2-3c-0.7-0.3-1.3-0.7-2-1c-1.7-0.8-3.5-1.7-5.2-2.7l-0.3-0.2l-0.3,0.2
				c-1.7,1.1-3.7,2-5.6,2.9c-0.5,0.2-1,0.5-1.6,0.7c-4,2-8.4,3-13.1,3c-7.7,0-15.5-2.7-22.1-7.5l-0.4-0.3l-30.9,29.9l0.3,0.4
				c0.1,0.1,10.2,14.6,11,23.5c0.8,8.8-2.4,15.4-5.9,22.4c-2,4.1-4.1,8.4-5.4,13.1c-4.6,17.2-0.3,35,10.8,45.4
				c9.2,8.9,21.7,10.6,33.9,12.3c3.5,0.5,7.2,1,10.6,1.7c6.1,1.2,11.8,4.6,16.6,9.6c0.2,0.3,0.4,0.5,0.4,0.5
				c0.1,0.1,0.9,0.8,1.9,0.8l0,0c0.6,0,1.1-0.2,1.6-0.7l0.1-0.1c0.1-0.1,0.3-0.3,0.4-0.5c4.7-5,10.5-8.3,16.6-9.6
				c3.4-0.7,7.1-1.2,10.6-1.7c12.1-1.7,24.7-3.4,33.9-12.3c11-10.3,15.2-28.1,10.8-45.4C898.2-402,896.2-406.2,894.2-410.2z
				 M888.4-352c-11.7,11.4-29.2,10.9-44.2,13.8c-6.4,1.3-12.2,4.8-16.9,9.8c-0.2,0.2-0.4,0.4-0.5,0.5c-1.3,1.3-2.7-0.1-2.7-0.1
				c-0.1-0.1-0.3-0.3-0.4-0.4c-4.7-5-10.5-8.5-16.9-9.8c-15-2.9-32.5-2.4-44.2-13.8c-12-11.2-14.8-29.4-10.7-44.9
				c3.4-12.7,12.7-21.6,11.3-35.8c-0.9-9.2-11.1-23.8-11.1-23.8l30.3-29.2c10.1,7.4,24.2,10.3,35.8,4.5c2.4-1.2,5-2.3,7.3-3.7
				c2.3,1.4,4.9,2.5,7.3,3.7c11.7,5.8,25.8,2.9,35.9-4.5l30.2,29.2c0,0-10.6,14.6-11.1,23.8c-0.9,14.8,7.6,22.4,11.4,35.8
				C903-381.4,900.3-363.2,888.4-352z"/>
			<path style="fill:#383433;" d="M887.7-432.7c0.5-9.3,11.1-23.8,11.1-23.8l-30.2-29.2c-10.1,7.4-24.2,10.3-35.9,4.5
				c-2.3-1.2-4.9-2.3-7.3-3.7c-2.2,1.4-4.9,2.5-7.3,3.7c-11.7,5.8-25.7,2.9-35.8-4.5L752-456.5c0,0,10.2,14.6,11.1,23.8
				c1.4,14.2-8,23.1-11.3,35.8c-4.1,15.5-1.3,33.7,10.7,44.9c11.7,11.4,29.2,10.9,44.2,13.8c6.4,1.3,12.2,4.8,16.9,9.8
				c0.1,0.2,0.3,0.4,0.4,0.4c0,0,1.4,1.4,2.7,0.1c0.2-0.2,0.4-0.3,0.5-0.5c4.7-5,10.5-8.5,16.9-9.8c15-2.9,32.5-2.4,44.2-13.8
				c11.9-11.2,14.6-29.4,10.7-44.9C895.3-410.3,886.8-417.9,887.7-432.7z M888.1-352.4c-8.9,8.6-21.3,10.3-33.2,12
				c-3.6,0.5-7.2,1-10.7,1.7c-6.4,1.3-12.3,4.7-17.2,10l-0.1,0.1c-0.1,0.1-0.2,0.2-0.3,0.3c-0.1,0.1-0.1,0.1-0.2,0.2
				c-0.3,0.3-0.5,0.4-0.8,0.4c-0.6,0-1.1-0.5-1.1-0.5c-0.1-0.1-0.2-0.2-0.2-0.3l-0.1-0.1c-4.9-5.2-10.8-8.7-17.2-10
				c-3.5-0.7-7.1-1.2-10.7-1.7c-12-1.6-24.4-3.3-33.3-12c-10.8-10.1-15-27.5-10.5-44.3c1.2-4.7,3.3-8.9,5.3-12.9
				c3.6-7.2,6.9-14,6-23c-0.8-8.5-9.3-21.3-10.9-23.7l29.6-28.6c6.7,4.8,14.6,7.4,22.4,7.4c4.9,0,9.5-1,13.6-3.1
				c0.5-0.2,1-0.5,1.5-0.7c1.8-0.9,3.8-1.8,5.5-2.8c1.6,0.9,3.3,1.8,5,2.6c0.7,0.3,1.4,0.7,2,1c4.2,2.1,8.8,3.1,13.7,3.1
				c7.8,0,15.7-2.6,22.4-7.4l29.5,28.6c-1.7,2.4-10.4,15.1-10.9,23.7c-0.5,9.5,2.7,16,6.1,23c2,4,4,8.1,5.4,13
				C902.8-379.9,898.7-362.5,888.1-352.4z"/>
			<path style="fill:#383433;" d="M881.7-432.4c1.5-8.6,4.8-16.4,9.9-23.4L868-478.7c-2.9,1.9-5.9,3.7-9.3,4.6
				c-9.8,3.5-20.5,3.4-29.3-1.7l-3.5-2.1l-3.5,2.1c-8.9,5.1-19.5,5.2-29.3,1.7c-3.3-0.9-6.3-2.8-9.3-4.6l-23.6,22.9
				c5.2,6.9,8.4,14.8,9.9,23.4c1.3,10.6-3.5,19.1-7.9,28c-6.4,12.4-7.6,29-0.2,41.3c3.3,7,11.2,12.3,18.8,14.7
				c14.7,4.9,33.2,1.3,44.6,13.9c0.3,0.3,0.5,0.3,0.8,0c11.4-12.6,29.9-9,44.6-13.9c7.6-2.4,15.5-7.7,18.8-14.7
				c7.4-12.3,6.2-28.9-0.2-41.3C885.2-413.3,880.4-421.9,881.7-432.4z M763.6-455.3l21-19.9c23.3,13.7,41.4,0.8,41.4,0.8
				c0.1-0.1,18.1,12.9,41.4-0.8l21,19.9c-6.8,10-8,13.5-9.5,20.8H773.1C771.5-441.8,770.4-445.3,763.6-455.3z M889.4-369.2
				c-3.6,9.2-12,15.6-22.4,18l-8,1.3c-11.7,2.5-23.8,1.2-33,10c0,0-0.1,0.1-0.2,0c-9.2-8.8-21.2-7.6-33-10l-8-1.3
				c-10.4-2.4-18.8-8.9-22.4-18c-1.7-4.4-4.3-12.5-0.5-26.6c0.9-3.1,3.8-9.9,4.2-10.4c6.7-12.7,6.9-22.9,6.9-25.1h105.6
				c0,2.2,0.2,12.4,6.9,25.1c0.5,0.5,3.3,7.3,4.2,10.4C893.8-381.7,891.1-373.6,889.4-369.2z"/>
		</g>
		<g>
			<g>
				<g>
					<path style="fill:#383433;" d="M796.5-455.5h-11.9c-0.3,0-0.5-0.2-0.5-0.5s0.2-0.5,0.5-0.5h11.9c0.3,0,0.5,0.2,0.5,0.5
						S796.8-455.5,796.5-455.5z"/>
				</g>
				<g>
					<path style="fill:#383433;" d="M796.5-452.7h-9.1c-0.3,0-0.5-0.2-0.5-0.5s0.2-0.5,0.5-0.5h9.1c0.3,0,0.5,0.2,0.5,0.5
						C797-452.9,796.8-452.7,796.5-452.7z"/>
				</g>
				<g>
					<path style="fill:#383433;" d="M796.5-458.2h-9.1c-0.3,0-0.5-0.2-0.5-0.5s0.2-0.5,0.5-0.5h9.1c0.3,0,0.5,0.2,0.5,0.5
						S796.8-458.2,796.5-458.2z"/>
				</g>
			</g>
			<g>
				<g>
					<path style="fill:#383433;" d="M854.4-455.5h11.9c0.3,0,0.5-0.2,0.5-0.5s-0.2-0.5-0.5-0.5h-11.9c-0.3,0-0.5,0.2-0.5,0.5
						S854.1-455.5,854.4-455.5z"/>
				</g>
				<g>
					<path style="fill:#383433;" d="M854.4-452.7h9.2c0.3,0,0.5-0.2,0.5-0.5s-0.2-0.5-0.5-0.5h-9.2c-0.3,0-0.5,0.2-0.5,0.5
						C853.9-452.9,854.1-452.7,854.4-452.7z"/>
				</g>
				<g>
					<path style="fill:#383433;" d="M854.4-458.2h9.2c0.3,0,0.5-0.2,0.5-0.5s-0.2-0.5-0.5-0.5h-9.2c-0.3,0-0.5,0.2-0.5,0.5
						S854.1-458.2,854.4-458.2z"/>
				</g>
			</g>
		</g>
		<g id="text_20_">
			<g>
				<path style="fill:#383433;" d="M814.4-360.5v4.5c0,0.6,0.1,1.1,0.3,1.4c0.3,0.4,0.8,0.6,1.3,0.6c0.6,0,1-0.2,1.3-0.6
					c0.2-0.3,0.3-0.8,0.3-1.4v-4.5h1.1v4.8c0,0.8-0.2,1.4-0.7,2c-0.6,0.6-1.2,0.9-2,0.9s-1.5-0.3-2-0.9c-0.5-0.5-0.7-1.2-0.7-2v-4.8
					H814.4z"/>
				<path style="fill:#383433;" d="M820.5-353.5c0-0.2,0.1-0.3,0.2-0.5c0.1-0.1,0.3-0.2,0.5-0.2s0.3,0.1,0.5,0.2
					c0.1,0.1,0.2,0.3,0.2,0.5s-0.1,0.3-0.2,0.5c-0.1,0.1-0.3,0.2-0.5,0.2s-0.4-0.1-0.5-0.2C820.6-353.2,820.5-353.3,820.5-353.5z"/>
				<path style="fill:#383433;" d="M827.9-359.4l-0.9,0.5c-0.2-0.3-0.3-0.5-0.5-0.6s-0.4-0.2-0.6-0.2c-0.3,0-0.6,0.1-0.8,0.3
					c-0.2,0.2-0.3,0.4-0.3,0.7c0,0.4,0.3,0.7,0.8,0.9l0.8,0.3c0.6,0.2,1.1,0.5,1.3,0.9s0.4,0.8,0.4,1.3c0,0.7-0.2,1.3-0.7,1.7
					c-0.5,0.5-1,0.7-1.7,0.7s-1.2-0.2-1.6-0.6c-0.4-0.4-0.7-0.9-0.8-1.6l1.1-0.3c0.1,0.4,0.1,0.7,0.3,0.9c0.2,0.3,0.6,0.5,1,0.5
					s0.6-0.1,0.9-0.4c0.2-0.2,0.4-0.5,0.4-0.9c0-0.1,0-0.3-0.1-0.4c0-0.1-0.1-0.2-0.2-0.3c-0.1-0.1-0.2-0.2-0.3-0.3
					c-0.1-0.1-0.3-0.2-0.5-0.3l-0.7-0.3c-1-0.4-1.5-1.1-1.5-1.9c0-0.6,0.2-1,0.6-1.4c0.4-0.4,1-0.6,1.6-0.6
					C826.7-360.7,827.4-360.2,827.9-359.4z"/>
				<path style="fill:#383433;" d="M829.4-353.5c0-0.2,0.1-0.3,0.2-0.5c0.1-0.1,0.3-0.2,0.5-0.2s0.3,0.1,0.5,0.2
					c0.1,0.1,0.2,0.3,0.2,0.5s-0.1,0.3-0.2,0.5c-0.1,0.1-0.3,0.2-0.5,0.2s-0.4-0.1-0.5-0.2C829.5-353.2,829.4-353.3,829.4-353.5z"/>
				<path style="fill:#383433;" d="M837-354.8h-3.2L833-353h-1.2l3.7-8l3.6,8h-1.2L837-354.8z M836.5-355.9l-1.1-2.6l-1.2,2.6H836.5
					z"/>
				<path style="fill:#383433;" d="M840.3-353.5c0-0.2,0.1-0.3,0.2-0.5c0.1-0.1,0.3-0.2,0.5-0.2s0.3,0.1,0.5,0.2
					c0.1,0.1,0.2,0.3,0.2,0.5s-0.1,0.3-0.2,0.5c-0.1,0.1-0.3,0.2-0.5,0.2s-0.4-0.1-0.5-0.2C840.3-353.2,840.3-353.3,840.3-353.5z"/>
			</g>
			<g>
				<path style="fill:#383433;" d="M778.9-438.2l1.6-8.1l2.6,5.8l2.7-5.8l1.4,8.1H786l-0.7-4.5l-2.2,4.9l-2.2-4.9l-0.8,4.5H778.9z"
					/>
				<path style="fill:#383433;" d="M788.3-442c0-1.1,0.4-2,1.2-2.7c0.8-0.8,1.7-1.1,2.8-1.1s2,0.4,2.8,1.1c0.8,0.8,1.2,1.7,1.2,2.8
					c0,1.1-0.4,2-1.2,2.8s-1.7,1.1-2.8,1.1c-1,0-1.8-0.3-2.6-1C788.8-439.8,788.3-440.8,788.3-442z M789.5-442c0,0.8,0.3,1.5,0.8,2
					c0.6,0.5,1.2,0.8,1.9,0.8c0.8,0,1.5-0.3,2-0.8c0.5-0.6,0.8-1.2,0.8-2s-0.3-1.5-0.8-2s-1.2-0.8-2-0.8s-1.4,0.3-2,0.8
					C789.7-443.4,789.5-442.8,789.5-442z"/>
				<path style="fill:#383433;" d="M799.4-444.7v6.5h-1.1v-6.5h-1.7v-1.1h4.6v1.1H799.4z"/>
				<path style="fill:#383433;" d="M801.6-442c0-1.1,0.4-2,1.2-2.7c0.8-0.8,1.7-1.1,2.8-1.1s2,0.4,2.8,1.1c0.8,0.8,1.2,1.7,1.2,2.8
					c0,1.1-0.4,2-1.2,2.8s-1.7,1.1-2.8,1.1c-1,0-1.8-0.3-2.6-1C802-439.8,801.6-440.8,801.6-442z M802.7-442c0,0.8,0.3,1.5,0.8,2
					c0.6,0.5,1.2,0.8,1.9,0.8c0.8,0,1.5-0.3,2-0.8c0.5-0.6,0.8-1.2,0.8-2s-0.3-1.5-0.8-2s-1.2-0.8-2-0.8s-1.4,0.3-2,0.8
					C803-443.4,802.7-442.8,802.7-442z"/>
				<path style="fill:#383433;" d="M813.4-441.4l2.3,3.2h-1.4l-2.1-3.1H812v3.1h-1.1v-7.5h1.3c1,0,1.7,0.2,2.2,0.6s0.7,1,0.7,1.6
					c0,0.5-0.2,1-0.5,1.4C814.3-441.8,813.9-441.5,813.4-441.4z M812-442.3h0.4c1.1,0,1.6-0.4,1.6-1.2c0-0.8-0.5-1.2-1.6-1.2H812
					V-442.3z"/>
				<path style="fill:#383433;" d="M816.8-438.2v-7.5h1.1c0.5,0,0.9,0,1.2,0.1s0.6,0.2,0.8,0.4c0.2,0.2,0.4,0.4,0.5,0.7
					c0.1,0.3,0.2,0.6,0.2,0.9c0,0.5-0.2,1-0.6,1.4c0.4,0.1,0.7,0.4,0.9,0.7c0.2,0.3,0.4,0.7,0.4,1.2c0,0.6-0.2,1.1-0.6,1.5
					c-0.3,0.2-0.5,0.4-0.8,0.5s-0.8,0.1-1.3,0.1L816.8-438.2L816.8-438.2z M818-442.5h0.4c0.4,0,0.7-0.1,0.9-0.3
					c0.2-0.2,0.3-0.5,0.3-0.8c0-0.4-0.1-0.6-0.3-0.8c-0.2-0.2-0.5-0.3-0.9-0.3H818V-442.5L818-442.5z M818-439.3h0.7
					c0.5,0,0.9-0.1,1.1-0.3c0.3-0.2,0.4-0.5,0.4-0.8s-0.1-0.6-0.4-0.8c-0.2-0.2-0.7-0.3-1.3-0.3H818C818-441.5,818-439.3,818-439.3z
					"/>
				<path style="fill:#383433;" d="M823.9-445.7v7.5h-1.1v-7.5H823.9z"/>
				<path style="fill:#383433;" d="M826.8-442.7l2.9-3h1.5l-3.4,3.4l3.4,4.1h-1.5l-2.7-3.3l-0.2,0.2v3.1h-1.1v-7.5h1.1V-442.7
					L826.8-442.7z"/>
				<path style="fill:#383433;" d="M836.4-444.7h-3v1.8h2.9v1.1h-2.9v2.5h3v1.1h-4.1v-7.5h4.1V-444.7z"/>
				<path style="fill:#383433;" d="M843.6-441.4l2.3,3.2h-1.4l-2.1-3.1h-0.2v3.1H841v-7.5h1.3c1,0,1.7,0.2,2.2,0.6s0.7,1,0.7,1.6
					c0,0.5-0.2,1-0.5,1.4C844.5-441.8,844.1-441.5,843.6-441.4z M842.1-442.3h0.4c1.1,0,1.6-0.4,1.6-1.2c0-0.8-0.5-1.2-1.6-1.2h-0.4
					V-442.3z"/>
				<path style="fill:#383433;" d="M846.5-442c0-1.1,0.4-2,1.2-2.7c0.8-0.8,1.7-1.1,2.8-1.1s2,0.4,2.8,1.1c0.8,0.8,1.2,1.7,1.2,2.8
					c0,1.1-0.4,2-1.2,2.8s-1.7,1.1-2.8,1.1c-1,0-1.8-0.3-2.6-1C846.9-439.8,846.5-440.8,846.5-442z M847.6-442c0,0.8,0.3,1.5,0.8,2
					c0.6,0.5,1.2,0.8,1.9,0.8c0.8,0,1.5-0.3,2-0.8c0.5-0.6,0.8-1.2,0.8-2s-0.3-1.5-0.8-2s-1.2-0.8-2-0.8s-1.4,0.3-2,0.8
					C847.9-443.4,847.6-442.8,847.6-442z"/>
				<path style="fill:#383433;" d="M856.9-445.7v4.5c0,0.6,0.1,1.1,0.3,1.4c0.3,0.4,0.8,0.6,1.3,0.6c0.6,0,1-0.2,1.3-0.6
					c0.2-0.3,0.3-0.8,0.3-1.4v-4.5h1.1v4.8c0,0.8-0.2,1.4-0.7,2c-0.6,0.6-1.2,0.9-2,0.9s-1.5-0.3-2-0.9c-0.5-0.5-0.7-1.2-0.7-2v-4.8
					H856.9z"/>
				<path style="fill:#383433;" d="M865.2-444.7v6.5h-1.1v-6.5h-1.7v-1.1h4.6v1.1H865.2z"/>
				<path style="fill:#383433;" d="M872.1-444.7h-3v1.8h2.9v1.1h-2.9v2.5h3v1.1H868v-7.5h4.1V-444.7z"/>
			</g>
			<g>
				<path style="fill:#383433;" d="M804.2-464.5h1.9v6.9h1.6v-6.9h1.9v15h-1.9v-6.2h-1.6v6.2h-1.9V-464.5z"/>
				<path style="fill:#383433;" d="M811.4-464.5h1.9v15h-1.9V-464.5z"/>
				<path style="fill:#383433;" d="M815-464.5h4.2c0.7,0,1.3,0.6,1.3,1.3v5.6c0,0.7-0.6,1.3-1.3,1.3H817v6.8h-2v-6.8V-464.5z
					 M818.6-462.6H817v4.3h1.6V-462.6z"/>
				<path style="fill:#383433;" d="M823.8-454v2.6h1.6v-4.9h-2.3c-0.8,0-1.3-0.6-1.3-1.3v-5.7c0-0.8,0.5-1.3,1.3-1.3h2.9
					c0.7,0,1.3,0.5,1.3,1.3v3.2h-1.9v-2.5h-1.6v4.4h2.3c0.7,0,1.3,0.6,1.3,1.3v6.2c0,0.7-0.6,1.3-1.3,1.3h-2.9
					c-0.7,0-1.3-0.6-1.3-1.3v-3.3L823.8-454L823.8-454z"/>
				<path style="fill:#383433;" d="M830.1-462.6h-1.7v-1.9h5.4v1.9H832v13.1h-1.9V-462.6L830.1-462.6z"/>
				<path style="fill:#383433;" d="M839.8-449.5h-5v-15h4.8v1.9h-2.9v4.1h2v1.9h-2v5.1h3L839.8-449.5L839.8-449.5z"/>
				<path style="fill:#383433;" d="M844.9-455.8h-1.6v6.4h-1.9v-15h4c0.7,0,1.3,0.6,1.3,1.3v5.2c0,0.5-0.3,0.9-0.7,1.1
					c0.6,0.1,0.9,0.7,0.9,1.3v6.2H845L844.9-455.8L844.9-455.8z M843.3-457.8h1.4v-4.8h-1.4V-457.8z"/>
			</g>
		</g>
	</g>
</g>
<g id="Layer_3" style="display:none;">
	<g id="atom_1_" style="display:inline;">
		<g>
			<path style="fill:#383433;" d="M1936.7-386.1c-4.9,5.4-12.2,5.6-19.1,4.9c1.9-5,3.3-10.3,4-15.9c4.1-3.5,7.7-7.1,11-11.4
				c3.4,4.6,6.2,9.5,6.4,15.4c0.4,0,0.8,0.2,1.1,0.2c-0.2-6.4-3.3-11.7-6.8-16.6c1.2-1.8,2.4-3.6,3.4-5.5c2.8-5.7,4.4-13,0-18.3
				c-4.9-5.2-12.7-5.6-19.8-4.7c-2.2-5-5.5-10.2-10.7-12.9c-3.9-2.2-9.4-1.5-12.9,1.3l0.8,0.8c1.8-1.4,3.9-2.2,6.2-2.3
				c7.5-0.2,12.5,7.1,15.3,13.1v0.3c-5.2,0.9-10.4,2.5-15.2,4.6c-4.8-1.7-9.5-3.2-14.7-3.9l-0.2-0.2c1-2.3,2.2-4.6,3.7-6.7l-0.8-0.8
				c-1.7,2.4-2.9,4.9-4.1,7.4c-0.5,0-0.9-0.1-1.3-0.2c-7-0.5-16.3,0.2-20.1,7.4c-3.4,7.8,1,15.5,5.4,21.6l-2,3.1l1,0.5l1.6-2.5
				l0.2-0.1c3.3,4,6.7,7.4,10.7,10.6c0.8,5.6,2.1,10.9,4.2,15.9v0.2c-6.2,0.7-13,0.8-17.9-4c-3.6-3.5-3.3-9.6-1.7-13.9
				c-0.4-0.1-0.7-0.2-1-0.5c-1.4,4.2-2,9.5,0.6,13.5c4.3,6.2,12.2,6.8,19.5,6.1c0.4,0,0.9-0.3,1.1,0c0.6,1.3,1.3,2.7,1.9,3.7
				c2,3.5,4.7,7.2,8.4,9.2c3.6,2.2,9.1,1.9,12.4-0.6c4.8-3.1,7.6-8.3,9.9-13.1c6.9,0.7,16,0.6,20.8-6
				C1937.6-386,1936.9-387.1,1936.7-386.1z M1921.9-398.9c0.6-6.3,0.8-13.8-0.1-20.3c3.7,2.9,7.1,6.2,10,9.8
				C1929-405.5,1925.6-402,1921.9-398.9z M1935.4-432.9c0.9,1,1.6,2,2.1,3.2c2.3,6-0.5,12-3.3,16.9l-1.5,2.3h-0.1
				c-3.2-4-6.9-7.4-10.8-10.5c-0.9-5.3-2.1-10.8-4.3-15.9C1923.7-437.6,1930.7-437.4,1935.4-432.9z M1916.1-436.6
				c2,4.6,3.2,9.5,4.1,14.6c-0.5-0.2-0.9-0.6-1.4-0.9c-5.3-3.7-11-7-16.9-9.5C1906.4-434.4,1911.2-435.8,1916.1-436.6z M1885.1-436
				c4.7,0.7,9.2,1.9,13.6,3.6c-6.1,3-12,6.5-17.5,10.8C1881.9-426.7,1883.2-431.4,1885.1-436z M1879.4-398.5
				c-3.2-2.8-6.9-6.2-9.6-9.7c2.8-3.7,6.2-7.3,9.7-10.4c-0.7,6.5-0.7,13.7,0,20.2L1879.4-398.5z M1879.8-420.4
				c-4,3.3-7.7,7.2-10.7,11.2h-0.1c-3.6-5.4-7.3-11.2-5.8-18.2c1-4.6,5.8-7.4,10.1-8.3c3.2-0.7,7.1-0.8,10.5-0.4v0.3
				C1881.8-431,1880.6-425.8,1879.8-420.4z M1880.9-419.8c5.9-4.8,12.5-8.9,19.4-12c7.1,2.8,13.9,6.7,20.2,11.4l0.1,0.3
				c1,7.2,0.9,15.8,0,22.3c-6.1,5-12.6,9-19.5,12.1c-7.3-2.9-13.9-6.8-20.2-11.8C1879.9-404.2,1879.9-412.7,1880.9-419.8z
				 M1881.2-395.6c2.4,1.6,4.9,3.5,7.4,5c3.5,2.1,7.1,4,10.9,5.6v0.1c-4.6,1.8-9.4,3.4-14.2,4.2
				C1883.3-385.3,1881.9-390.6,1881.2-395.6z M1915.9-380c-2.8,6.4-8,14.2-16,13.9c-6.7-0.6-11.6-7.7-14.2-13.5
				c5.4-1,10.5-2.6,15.3-4.7c4.8,1.8,9.6,3.4,14.8,4.1v0.2H1915.9z M1916.5-381.4c-4.7-0.6-9.4-1.9-13.8-3.6
				c6.2-2.9,12.1-6.6,17.6-10.9C1919.6-391,1918.4-386,1916.5-381.4z M1889-447.2c0.2-0.5,0.4-1.1,1-1.4c0.9-0.5,2-0.5,2.8,0.3
				c0.5,0.5,0.6,1.1,0.6,1.8c-0.1,0.6-0.5,1.3-1.1,1.7c-0.7,0.5-1.7,0.3-2.3-0.1C1889.3-445.5,1888.9-446.3,1889-447.2z
				 M1900.7-402.5c-2,0-3.9-1.2-5-2.9c-1.2-2.1-1.1-4.2-0.1-6.2c1.3-2.2,3.7-3.3,6.2-3c1.5,0.3,2.9,1.2,4,2.5
				c1.2,1.7,1.3,3.9,0.6,5.9C1905.4-403.9,1902.9-402.4,1900.7-402.5z M1863.4-400.7c-0.4-0.7-0.4-1.7,0.1-2.4
				c0.4-0.5,1-0.8,1.5-0.9c0.9,0,1.8,0.5,2.2,1.3c0.4,0.9,0.1,1.9-0.5,2.5c-0.5,0.5-1.2,0.6-1.8,0.6
				C1864.3-399.7,1863.7-400.2,1863.4-400.7z M1940.9-389.2c-0.1,0.6-0.6,1.3-1.2,1.6c-0.7,0.4-1.7,0.2-2.3-0.2
				c-0.6-0.5-0.7-1.1-0.9-1.7c0.1-0.9,0.6-1.9,1.6-2.2c0.8-0.3,1.8,0,2.3,0.7C1940.8-390.5,1941-389.9,1940.9-389.2z"/>
			<path style="fill:#2E3133;" d="M1981-404.8c0,1-0.8,1.7-1.8,1.6c-0.9-0.1-1.7-0.9-1.6-1.8c0-0.9,0.8-1.6,1.8-1.6
				C1980.3-406.5,1981-405.7,1981-404.8z M1979.1-401.2c-0.9-0.1-1.7,0.6-1.9,1.5c-0.1,0.9,0.5,1.7,1.4,1.9c0.9,0.1,1.8-0.5,1.9-1.5
				C1980.8-400.2,1980.1-401.1,1979.1-401.2z M1978.4-395.8c-0.9-0.1-1.8,0.5-1.9,1.4s0.5,1.8,1.4,2s1.8-0.4,1.9-1.3
				C1979.9-394.8,1979.3-395.7,1978.4-395.8z M1977.3-390.5c-0.9-0.2-1.8,0.3-2.1,1.2c-0.2,0.9,0.3,1.8,1.2,2.1
				c0.9,0.3,1.8-0.3,2.1-1.2C1978.8-389.4,1978.2-390.3,1977.3-390.5z M1976-385.3c-0.9-0.3-1.9,0.2-2.2,1s0.1,1.8,1,2.1
				c0.9,0.3,1.9-0.2,2.2-1C1977.3-384.1,1976.9-385,1976-385.3z M1974.1-380.2c-0.9-0.3-1.8,0.1-2.1,0.9c-0.3,0.9,0,1.8,0.9,2.2
				c0.8,0.4,1.9,0,2.2-0.9C1975.4-378.9,1975-379.9,1974.1-380.2z M1972-375.3c-0.8-0.4-1.8-0.1-2.2,0.8c-0.4,0.8,0,1.8,0.8,2.3
				c0.8,0.4,1.8,0.1,2.2-0.8S1972.8-374.9,1972-375.3z M1969.6-370.5c-0.8-0.5-1.9-0.2-2.3,0.6c-0.5,0.8-0.2,1.8,0.6,2.3
				c0.8,0.5,1.8,0.2,2.3-0.6C1970.6-369,1970.4-370,1969.6-370.5z M1966.8-365.9c-0.8-0.5-1.8-0.3-2.3,0.5c-0.5,0.7-0.4,1.8,0.4,2.3
				s1.8,0.4,2.4-0.4C1967.8-364.3,1967.5-365.4,1966.8-365.9z M1963.6-361.5c-0.7-0.6-1.8-0.4-2.3,0.3c-0.5,0.7-0.4,1.8,0.3,2.4
				c0.7,0.6,1.8,0.5,2.3-0.3C1964.5-359.9,1964.4-360.9,1963.6-361.5z M1957.8-357.2c-0.6,0.7-0.6,1.7,0.1,2.4
				c0.7,0.6,1.7,0.6,2.4-0.1c0.6-0.7,0.6-1.8-0.1-2.4C1959.5-357.9,1958.5-357.9,1957.8-357.2z M1954.2-353.4
				c-0.7,0.6-0.7,1.7-0.1,2.4c0.6,0.7,1.7,0.7,2.4,0.1c0.7-0.6,0.7-1.7,0.1-2.4C1955.9-354,1954.9-354,1954.2-353.4z M1950.3-349.8
				c-0.7,0.6-0.8,1.6-0.2,2.3c0.6,0.7,1.7,0.9,2.4,0.3c0.7-0.6,0.8-1.7,0.2-2.4C1952-350.4,1950.9-350.4,1950.3-349.8z
				 M1946.1-346.6c-0.7,0.5-0.9,1.6-0.4,2.4s1.6,0.9,2.3,0.4c0.8-0.6,0.9-1.6,0.4-2.4C1947.8-347,1946.8-347.2,1946.1-346.6z
				 M1941.7-343.7c-0.8,0.5-1,1.5-0.5,2.3s1.5,1.1,2.3,0.6s1.1-1.5,0.5-2.3C1943.5-343.9,1942.5-344.2,1941.7-343.7z M1937.2-341
				c-0.8,0.4-1.1,1.4-0.7,2.2c0.4,0.8,1.5,1.2,2.3,0.8c0.9-0.4,1.1-1.5,0.7-2.3C1938.9-341.2,1938-341.4,1937.2-341z M1932.4-338.7
				c-0.8,0.4-1.2,1.4-0.8,2.3c0.4,0.9,1.4,1.2,2.2,0.8c0.9-0.4,1.2-1.4,0.8-2.3C1934.2-338.8,1933.2-339.1,1932.4-338.7z
				 M1927.5-336.8c-0.9,0.3-1.3,1.3-1,2.2c0.3,0.9,1.3,1.3,2.2,1c0.9-0.3,1.3-1.3,1-2.2C1929.3-336.6,1928.3-337.1,1927.5-336.8z
				 M1922.5-335.1c-0.9,0.2-1.4,1.1-1.2,2c0.2,0.9,1.2,1.4,2.1,1.2c0.9-0.2,1.4-1.2,1.2-2C1924.3-334.8,1923.4-335.4,1922.5-335.1z
				 M1917.4-333.8c-0.9,0.3-1.5,1-1.3,2c0.2,0.9,1.1,1.6,2,1.3c0.9-0.2,1.5-1.2,1.3-2.1C1919.1-333.5,1918.3-334,1917.4-333.8z
				 M1912.2-333c-0.9,0.1-1.5,1-1.4,1.9s1,1.6,1.9,1.4c0.9-0.1,1.6-1,1.4-1.9S1913.1-333.1,1912.2-333z M1906.9-332.4
				c-0.9,0-1.6,0.8-1.6,1.8c0,0.9,0.9,1.7,1.8,1.6c1,0,1.7-0.8,1.6-1.8C1908.6-331.7,1907.8-332.4,1906.9-332.4z M1901.7-332.1
				c-0.9,0-1.7,0.7-1.7,1.6s0.7,1.8,1.7,1.7c1,0,1.7-0.8,1.7-1.8C1903.3-331.4,1902.6-332.2,1901.7-332.1z M1896.4-332.3
				c-0.9,0-1.7,0.7-1.8,1.6c-0.1,0.9,0.6,1.7,1.6,1.8c1,0,1.8-0.7,1.8-1.6C1898-331.5,1897.3-332.3,1896.4-332.3z M1891.1-332.9
				c-0.9-0.1-1.7,0.5-1.9,1.4c-0.1,0.9,0.5,1.8,1.4,1.9s1.8-0.5,1.9-1.4C1892.7-331.8,1892-332.7,1891.1-332.9z M1885.9-333.6
				c-0.9-0.2-1.8,0.3-2,1.2c-0.2,0.9,0.4,1.8,1.3,2.1c0.9,0.1,1.8-0.5,2-1.4C1887.4-332.7,1886.8-333.5,1885.9-333.6z M1880.8-335
				c-0.9-0.2-1.8,0.3-2.1,1.2c-0.3,0.9,0.3,1.8,1.2,2c0.9,0.2,1.9-0.3,2.1-1.2C1882.2-333.8,1881.7-334.7,1880.8-335z M1875.8-336.6
				c-0.9-0.3-1.8,0.1-2.1,1c-0.3,0.9,0.1,1.8,1,2.2c0.9,0.3,1.9-0.1,2.2-1C1877.1-335.3,1876.6-336.2,1875.8-336.6z M1870.8-338.4
				c-0.8-0.4-1.8,0-2.2,0.8c-0.4,0.8,0,1.9,0.8,2.3s1.9,0,2.2-0.9C1872.1-337.1,1871.7-338,1870.8-338.4z M1866.1-340.7
				c-0.8-0.4-1.8-0.1-2.3,0.7c-0.5,0.8-0.1,1.8,0.7,2.3c0.9,0.4,1.9,0.1,2.3-0.8C1867.2-339.3,1866.9-340.3,1866.1-340.7z
				 M1861.5-343.4c-0.8-0.5-1.8-0.2-2.3,0.6c-0.5,0.8-0.3,1.8,0.6,2.3c0.8,0.5,1.9,0.2,2.3-0.6
				C1862.5-341.9,1862.3-342.9,1861.5-343.4z M1857.1-346.2c-0.7-0.5-1.8-0.4-2.3,0.4c-0.6,0.7-0.4,1.8,0.4,2.4s1.8,0.4,2.3-0.4
				S1857.8-345.7,1857.1-346.2z M1852.9-349.4c-0.7-0.6-1.7-0.5-2.3,0.2c-0.6,0.7-0.5,1.8,0.2,2.4c0.8,0.6,1.8,0.4,2.4-0.3
				C1853.7-347.8,1853.6-348.9,1852.9-349.4z M1846.5-352.8c-0.7,0.7-0.6,1.7,0.1,2.4c0.7,0.6,1.8,0.6,2.4-0.1s0.6-1.8-0.1-2.4
				C1848.3-353.6,1847.2-353.5,1846.5-352.8z M1842.9-356.8c-0.7,0.6-0.7,1.7-0.1,2.4c0.6,0.7,1.7,0.8,2.4,0.1
				c0.7-0.7,0.7-1.7,0.1-2.4C1844.6-357.4,1843.6-357.4,1842.9-356.8z M1839.4-360.9c-0.7,0.6-0.9,1.6-0.3,2.4
				c0.5,0.8,1.7,0.8,2.4,0.2c0.7-0.6,0.8-1.6,0.2-2.4C1841.2-361.4,1840.2-361.5,1839.4-360.9z M1838.6-364.9
				c-0.6-0.7-1.6-0.9-2.4-0.4s-1,1.6-0.4,2.3c0.6,0.8,1.6,0.9,2.4,0.4S1839.1-364.2,1838.6-364.9z M1835.8-369.3
				c-0.5-0.8-1.5-1-2.3-0.6c-0.8,0.5-1.1,1.5-0.6,2.3s1.5,1.1,2.3,0.6C1836-367.5,1836.2-368.6,1835.8-369.3z M1833.2-373.9
				c-0.4-0.8-1.4-1.2-2.2-0.8c-0.8,0.4-1.2,1.4-0.8,2.3c0.4,0.9,1.4,1.2,2.2,0.8C1833.2-372.1,1833.6-373.1,1833.2-373.9z
				 M1830.9-378.7c-0.3-0.8-1.3-1.3-2.1-0.9c-0.9,0.3-1.3,1.4-1,2.2c0.4,0.9,1.4,1.2,2.3,0.9
				C1830.9-376.9,1831.3-377.9,1830.9-378.7z M1829.1-383.6c-0.3-0.9-1.3-1.3-2.2-1c-0.9,0.3-1.3,1.2-1,2.1s1.3,1.4,2.2,1
				S1829.4-382.8,1829.1-383.6z M1826.3-386.6c0.9-0.3,1.4-1.2,1.2-2.1c-0.2-0.9-1.1-1.4-2.1-1.2c-0.9,0.2-1.4,1.1-1.2,2.1
				C1824.5-386.9,1825.4-386.4,1826.3-386.6z M1825-391.8c0.9-0.2,1.4-1.1,1.3-2s-1-1.5-1.9-1.3s-1.6,1-1.4,2
				C1823.1-392.2,1824.1-391.6,1825-391.8z M1824.1-397.2c0.9-0.1,1.6-1,1.4-1.9c-0.1-0.9-1-1.5-1.9-1.5c-0.9,0.1-1.6,0.9-1.4,1.9
				C1822.3-397.7,1823.2-397,1824.1-397.2z M1823.5-402.5c0.9-0.1,1.6-0.9,1.6-1.8s-0.8-1.6-1.8-1.6c-0.9,0-1.7,0.8-1.6,1.8
				C1821.7-403.1,1822.5-402.4,1823.5-402.5z M1823.2-407.9c0.9,0,1.6-0.8,1.7-1.7c0-0.9-0.7-1.7-1.6-1.7s-1.7,0.7-1.8,1.7
				C1821.4-408.7,1822.2-407.9,1823.2-407.9z M1823.4-413.3c0.9,0.1,1.7-0.6,1.8-1.5c0.1-0.9-0.7-1.7-1.6-1.8
				c-0.9-0.1-1.7,0.6-1.8,1.5C1821.7-414.2,1822.5-413.3,1823.4-413.3z M1823.9-418.7c0.9,0.1,1.8-0.5,1.9-1.4s-0.5-1.8-1.4-1.9
				c-0.9-0.2-1.8,0.5-1.9,1.4C1822.3-419.6,1822.9-418.8,1823.9-418.7z M1824.7-424c0.9,0.2,1.8-0.4,2-1.3s-0.3-1.8-1.2-2
				c-0.9-0.2-1.8,0.3-2.1,1.3C1823.2-425.1,1823.7-424.2,1824.7-424z M1826-429.2c0.9,0.2,1.8-0.3,2-1.2c0.2-0.9-0.2-1.8-1.1-2.1
				c-0.9-0.3-1.9,0.2-2.1,1.1C1824.6-430.4,1825.1-429.5,1826-429.2z M1827.6-434.4c0.9,0.3,1.9-0.1,2.2-1c0.3-0.9-0.1-1.8-1-2.2
				c-0.9-0.3-1.8,0.1-2.2,1C1826.3-435.7,1826.7-434.7,1827.6-434.4z M1829.5-439.4c0.9,0.4,1.9,0,2.3-0.8s0-1.8-0.8-2.2
				c-0.8-0.4-1.9,0-2.3,0.8C1828.3-440.8,1828.6-439.8,1829.5-439.4z M1831.8-444.3c0.8,0.4,1.8,0.1,2.2-0.7
				c0.5-0.8,0.2-1.8-0.6-2.2c-0.8-0.5-1.9-0.2-2.4,0.6C1830.7-445.8,1831-444.7,1831.8-444.3z M1834.5-449c0.8,0.5,1.8,0.2,2.3-0.5
				c0.5-0.8,0.2-1.8-0.6-2.3c-0.8-0.5-1.8-0.3-2.3,0.5S1833.7-449.5,1834.5-449z M1837.4-453.5c0.8,0.5,1.8,0.4,2.4-0.3
				c0.5-0.7,0.4-1.8-0.4-2.4c-0.7-0.6-1.8-0.4-2.4,0.4C1836.5-455.1,1836.6-454,1837.4-453.5z M1840.6-457.8
				c0.7,0.6,1.7,0.5,2.4-0.2c0.6-0.7,0.5-1.7-0.2-2.3c-0.7-0.6-1.8-0.6-2.4,0.2C1839.8-459.5,1839.9-458.4,1840.6-457.8z
				 M1846.6-461.9c0.6-0.7,0.6-1.7,0-2.4c-0.7-0.7-1.8-0.7-2.4,0s-0.6,1.8,0.1,2.4S1846-461.3,1846.6-461.9z M1850.4-465.5
				c0.7-0.6,0.7-1.7,0.1-2.4c-0.6-0.7-1.7-0.8-2.4-0.1c-0.7,0.6-0.8,1.7-0.1,2.4C1848.7-465,1849.7-464.9,1850.4-465.5z
				 M1854.8-471.3c-0.6-0.8-1.6-0.9-2.4-0.3s-0.9,1.6-0.3,2.3c0.6,0.7,1.7,0.9,2.4,0.3C1855.2-469.5,1855.3-470.5,1854.8-471.3z
				 M1859.2-474.4c-0.5-0.8-1.6-1-2.4-0.5s-1,1.6-0.4,2.4c0.5,0.8,1.6,0.9,2.3,0.4C1859.5-472.6,1859.7-473.6,1859.2-474.4z
				 M1863.8-477.2c-0.4-0.8-1.5-1.1-2.3-0.6s-1.1,1.5-0.6,2.3s1.5,1.1,2.3,0.6C1864-475.3,1864.2-476.3,1863.8-477.2z M1868.7-479.5
				c-0.4-0.8-1.4-1.2-2.3-0.8c-0.9,0.4-1.2,1.4-0.8,2.3c0.4,0.8,1.4,1.2,2.3,0.8C1868.7-477.7,1869-478.7,1868.7-479.5z
				 M1873.6-481.6c-0.3-0.9-1.3-1.3-2.2-1c-0.9,0.3-1.3,1.3-0.9,2.2c0.4,0.8,1.3,1.2,2.2,0.9C1873.5-479.8,1874-480.7,1873.6-481.6z
				 M1878.7-483.4c-0.3-0.9-1.2-1.4-2.1-1.1s-1.4,1.3-1.1,2.2c0.3,0.9,1.3,1.3,2.1,1C1878.5-481.6,1879-482.5,1878.7-483.4z
				 M1883.9-484.7c-0.2-0.9-1.1-1.5-2-1.2s-1.5,1.2-1.2,2.1c0.2,0.9,1.2,1.4,2,1.2C1883.6-482.9,1884.1-483.8,1883.9-484.7z
				 M1889.2-485.7c-0.1-0.9-1-1.6-2-1.4s-1.6,1-1.4,1.9s1.1,1.5,2,1.4C1888.8-483.9,1889.4-484.8,1889.2-485.7z M1892.7-488
				c-0.9,0.1-1.6,1-1.5,1.9s0.9,1.6,1.8,1.4c0.9-0.1,1.6-0.9,1.5-1.8C1894.5-487.3,1893.7-488.1,1892.7-488z M1898.2-488.3
				c-1,0-1.7,0.8-1.6,1.8c0.1,0.9,0.8,1.6,1.7,1.6c0.9,0,1.6-0.8,1.6-1.8C1900-487.6,1899.2-488.3,1898.2-488.3z M1903.7-488.3
				c-1,0-1.7,0.7-1.7,1.6s0.7,1.7,1.6,1.8c0.9,0,1.7-0.7,1.7-1.6C1905.4-487.5,1904.7-488.3,1903.7-488.3z M1909.2-488
				c-1,0-1.8,0.7-1.8,1.6c-0.1,0.9,0.6,1.7,1.5,1.8c0.9,0.1,1.7-0.5,1.8-1.5C1910.9-487,1910.2-488,1909.2-488z M1914.7-487.2
				c-0.9-0.1-1.8,0.5-1.9,1.4s0.5,1.8,1.4,1.9s1.8-0.5,1.9-1.4C1916.3-486.2,1915.6-487.1,1914.7-487.2z M1920.1-486.1
				c-0.9-0.2-1.8,0.3-2,1.2c-0.2,0.9,0.4,1.8,1.2,2.1c0.9,0.2,1.8-0.3,2-1.2C1921.6-485,1921-485.9,1920.1-486.1z M1925.4-484.7
				c-0.9-0.3-1.9,0.3-2.1,1.2c-0.3,0.9,0.3,1.8,1.1,2.1c0.8,0.3,1.8-0.1,2.1-1C1926.8-483.4,1926.3-484.4,1925.4-484.7z
				 M1930.6-482.8c-0.9-0.3-1.9,0.1-2.2,1c-0.3,0.9,0.1,1.8,1,2.2c0.9,0.3,1.8-0.1,2.2-1S1931.5-482.5,1930.6-482.8z M1935.6-480.6
				c-0.9-0.4-1.9-0.1-2.2,0.8c-0.4,0.9,0,1.9,0.8,2.3s1.8,0,2.2-0.8C1936.8-479.2,1936.5-480.2,1935.6-480.6z M1941.1-475.8
				c0.5-0.8,0.2-1.9-0.6-2.3c-0.8-0.5-1.8-0.2-2.3,0.6c-0.4,0.8-0.1,1.8,0.6,2.3C1939.7-474.7,1940.7-475,1941.1-475.8z
				 M1945.7-472.9c0.5-0.8,0.4-1.9-0.5-2.4c-0.8-0.5-1.9-0.3-2.4,0.5s-0.3,1.8,0.5,2.3C1944.2-472,1945.2-472.1,1945.7-472.9z
				 M1947.7-469.3c0.7,0.5,1.8,0.4,2.4-0.3c0.6-0.7,0.4-1.8-0.3-2.4c-0.8-0.6-1.8-0.4-2.4,0.3
				C1946.8-470.9,1946.9-469.9,1947.7-469.3z M1954.1-466.1c0.6-0.7,0.6-1.8-0.1-2.4s-1.8-0.6-2.4,0.1s-0.5,1.8,0.1,2.4
				C1952.4-465.4,1953.5-465.4,1954.1-466.1z M1958-462.4c0.7-0.6,0.7-1.7,0.1-2.4c-0.7-0.7-1.8-0.6-2.4,0c-0.7,0.7-0.6,1.7,0,2.3
				C1956.2-461.7,1957.3-461.7,1958-462.4z M1961.6-458.4c0.7-0.6,0.8-1.6,0.1-2.4c-0.6-0.7-1.7-0.8-2.4-0.1
				c-0.7,0.6-0.8,1.7-0.1,2.4C1959.8-457.8,1960.9-457.8,1961.6-458.4z M1962.5-454.4c0.5,0.7,1.6,0.9,2.4,0.3
				c0.8-0.5,0.9-1.6,0.3-2.4s-1.6-0.9-2.4-0.3C1962.1-456.2,1961.9-455.1,1962.5-454.4z M1965.5-450.1c0.5,0.8,1.5,1,2.3,0.5
				s1-1.5,0.5-2.4c-0.5-0.8-1.5-1.1-2.3-0.5C1965.3-451.9,1965-450.9,1965.5-450.1z M1968.3-445.6c0.5,0.8,1.4,1.1,2.3,0.7
				c0.8-0.4,1.2-1.5,0.7-2.3s-1.6-1.1-2.4-0.6C1968.1-447.4,1967.8-446.3,1968.3-445.6z M1970.6-440.8c0.4,0.8,1.4,1.2,2.3,0.8
				c0.9-0.4,1.2-1.4,0.8-2.2c-0.4-0.9-1.4-1.2-2.3-0.8C1970.6-442.7,1970.2-441.7,1970.6-440.8z M1972.7-436c0.3,0.9,1.3,1.3,2.2,1
				c0.9-0.3,1.3-1.3,1-2.2c-0.3-0.9-1.3-1.3-2.2-1C1972.8-437.8,1972.3-436.8,1972.7-436z M1974.4-431c0.2,0.9,1.1,1.4,2,1.1
				c0.9-0.2,1.4-1.2,1.2-2.1c-0.3-0.9-1.3-1.4-2.2-1.1C1974.6-432.8,1974.2-431.9,1974.4-431z M1977-427.9c-0.9,0.2-1.5,1.1-1.2,2
				c0.2,0.9,1.2,1.4,2.1,1.3s1.5-1.1,1.2-2S1977.9-428.2,1977-427.9z M1978.2-422.7c-0.9,0.2-1.6,1-1.4,1.9c0.1,0.9,1,1.5,1.9,1.4
				s1.6-1,1.4-1.9S1979.1-422.8,1978.2-422.7z M1979-417.3c-0.9,0.1-1.5,0.9-1.5,1.8s0.8,1.6,1.8,1.5c0.9-0.1,1.6-0.9,1.6-1.8
				C1980.8-416.8,1979.9-417.4,1979-417.3z M1979.3-411.9c-0.9,0-1.7,0.8-1.6,1.7c0,0.9,0.8,1.6,1.8,1.6c0.9,0,1.7-0.8,1.6-1.7
				C1981.1-411.3,1980.3-412,1979.3-411.9z"/>
			<g>
				<g>
					<path style="fill:#383433;" d="M1854.6-447.6l-0.9,1l4.2,3.6l-1.3,1.5l-10-8.6c-0.2-0.2-0.3-0.4-0.3-0.7c0-0.3,0.1-0.5,0.2-0.7
						l2.2-2.5c0.2-0.2,0.4-0.3,0.7-0.3s0.5,0.1,0.7,0.2l10,8.6l-1.3,1.5L1854.6-447.6z M1852.2-447.8l0.9-1l-3.6-3.1l-0.9,1
						L1852.2-447.8z"/>
					<path style="fill:#383433;" d="M1856.3-458.7l-1,0.9l8.3,9l-1.4,1.3l-8.3-9l-1,0.9l-1.3-1.4l3.4-3.2L1856.3-458.7z"/>
					<path style="fill:#383433;" d="M1869.3-454.5c0.2,0.2,0.2,0.5,0.2,0.7c0,0.3-0.2,0.5-0.4,0.6l-2.7,2c-0.2,0.2-0.5,0.2-0.7,0.2
						c-0.3,0-0.5-0.2-0.6-0.4l-7.2-9.9c-0.2-0.2-0.2-0.5-0.2-0.7c0-0.3,0.2-0.5,0.4-0.6l2.7-2c0.2-0.2,0.5-0.2,0.7-0.2
						c0.3,0,0.5,0.2,0.6,0.4L1869.3-454.5z M1867.2-454.2l-6.1-8.3l-1.1,0.8l6.1,8.3L1867.2-454.2z"/>
					<path style="fill:#383433;" d="M1877-457.8l-1.7,0.9l-5.9-10.8l-0.4,0.2l5.9,10.8l-1.7,0.9l-5.9-10.8l-0.4,0.2l5.9,10.8
						l-1.7,0.9l-6.3-11.6c-0.1-0.2-0.1-0.5-0.1-0.7s0.2-0.5,0.5-0.6l4.2-2.3c0.2-0.1,0.5-0.1,0.7-0.1c0.3,0.1,0.5,0.2,0.6,0.5
						L1877-457.8z"/>
					<path style="fill:#383433;" d="M1880.3-459.1l-1.8,0.7l-5.4-13.1l1.8-0.7L1880.3-459.1z"/>
					<path style="fill:#383433;" d="M1886.6-462.3c0.1,0.2,0,0.5-0.1,0.7s-0.3,0.4-0.6,0.5l-3.2,1c-0.2,0.1-0.5,0-0.7-0.1
						s-0.4-0.3-0.5-0.6l-3.6-11.7c-0.1-0.2-0.1-0.5,0.1-0.7c0.1-0.2,0.3-0.4,0.6-0.5l3.2-1c0.2-0.1,0.5,0,0.7,0.1s0.4,0.3,0.5,0.6
						l1.2,4l-1.9,0.6l-1-3.1l-1.3,0.4l3,9.9l1.3-0.4l-0.4-1.4l1.9-0.6L1886.6-462.3z"/>
					<path style="fill:#383433;" d="M1900.2-463.2l-1.6,0.1c-0.3,0-0.5-0.1-0.7-0.2c-0.2-0.2-0.3-0.4-0.3-0.7l-0.1-2.1
						c0-0.3-0.1-0.5-0.3-0.7c-0.2-0.2-0.4-0.3-0.7-0.2h-0.4l0.3,4l-1.9,0.1l-0.9-13.2c0-0.3,0.1-0.5,0.2-0.7
						c0.2-0.2,0.4-0.3,0.7-0.3l3.3-0.2c0.3,0,0.5,0.1,0.7,0.2c0.2,0.2,0.3,0.4,0.3,0.7l0.4,6.7c0,0.3-0.1,0.5-0.2,0.7
						c-0.2,0.2-0.4,0.3-0.7,0.3c0.3,0,0.5,0.1,0.7,0.2c0.2,0.2,0.3,0.4,0.3,0.7l0.2,2.6h0.6L1900.2-463.2z M1897.1-470.5l-0.3-4.7
						l-1.3,0.1l0.3,4.7L1897.1-470.5z"/>
					<path style="fill:#383433;" d="M1904.7-468.6l-1.4-0.1l-0.2,3.6l1.4,0.1l0.1-1.5l1.9,0.1l-0.1,2.5c0,0.3-0.1,0.5-0.3,0.7
						c-0.2,0.2-0.4,0.3-0.7,0.3l-3.3-0.2c-0.3,0-0.5-0.1-0.7-0.3c-0.2-0.2-0.3-0.4-0.3-0.7l0.7-12.2c0-0.3,0.1-0.5,0.3-0.7
						c0.2-0.2,0.4-0.3,0.7-0.3l3.3,0.2c0.3,0,0.5,0.1,0.7,0.3c0.2,0.2,0.3,0.4,0.3,0.7l-0.2,4.2l-1.9-0.1l0.2-3.2l-1.4-0.1l-0.3,4.7
						l1.4,0.1L1904.7-468.6z"/>
					<path style="fill:#383433;" d="M1913.1-462.8c0,0.3-0.2,0.5-0.4,0.6c-0.2,0.2-0.5,0.2-0.7,0.2l-3.3-0.6c-0.3,0-0.5-0.2-0.6-0.4
						c-0.2-0.2-0.2-0.5-0.2-0.7l2.1-12.1c0-0.3,0.2-0.5,0.4-0.6c0.2-0.2,0.5-0.2,0.7-0.2l3.3,0.6c0.3,0,0.5,0.2,0.6,0.4
						c0.2,0.2,0.2,0.5,0.2,0.7l-0.7,4.2l-1.9-0.3l0.6-3.2l-1.3-0.2l-1.8,10.2l1.3,0.2l0.3-1.5l1.9,0.3L1913.1-462.8z"/>
					<path style="fill:#383433;" d="M1919.8-461c-0.1,0.2-0.2,0.4-0.5,0.6c-0.2,0.1-0.5,0.2-0.7,0.1l-3.2-1
						c-0.2-0.1-0.4-0.2-0.6-0.5c-0.1-0.2-0.2-0.5-0.1-0.7l3.5-11.7c0.1-0.2,0.2-0.4,0.5-0.6c0.2-0.1,0.5-0.2,0.7-0.1l3.2,1
						c0.2,0.1,0.4,0.2,0.6,0.5c0.1,0.2,0.2,0.5,0.1,0.7L1919.8-461z M1918.2-462.5l3-9.9l-1.3-0.4l-3,9.9L1918.2-462.5z"/>
					<path style="fill:#383433;" d="M1926.2-457.2l-1.4-0.6c-0.2-0.1-0.4-0.3-0.5-0.5c-0.1-0.3-0.1-0.5,0-0.7l0.8-1.9
						c0.1-0.2,0.1-0.5,0-0.7c-0.1-0.3-0.3-0.4-0.5-0.5l-0.3-0.1l-1.6,3.7l-1.8-0.8l5.3-12.1c0.1-0.2,0.3-0.4,0.5-0.5
						c0.3-0.1,0.5-0.1,0.7,0l3,1.3c0.2,0.1,0.4,0.3,0.5,0.5c0.1,0.3,0.1,0.5,0,0.7l-2.7,6.1c-0.1,0.2-0.3,0.4-0.5,0.5
						c-0.3,0.1-0.5,0.1-0.7,0c0.3,0.1,0.4,0.3,0.5,0.5s0.1,0.5,0,0.7l-1.1,2.4l0.6,0.2L1926.2-457.2z M1926.9-465.2l1.9-4.3
						l-1.2-0.5l-1.9,4.3L1926.9-465.2z"/>
					<path style="fill:#383433;" d="M1932-455c-0.1,0.2-0.3,0.4-0.6,0.4c-0.3,0.1-0.5,0-0.7-0.1l-2.9-1.7c-0.2-0.1-0.4-0.3-0.4-0.6
						c-0.1-0.3,0-0.5,0.1-0.7l6.2-10.6c0.1-0.2,0.3-0.4,0.6-0.4c0.3-0.1,0.5,0,0.7,0.1l2.9,1.7c0.2,0.1,0.4,0.3,0.4,0.6
						c0.1,0.3,0,0.5-0.1,0.7L1932-455z M1930.9-456.8l5.2-8.9l-1.2-0.7l-5.2,8.9L1930.9-456.8z"/>
					<path style="fill:#383433;" d="M1937.5-451c-0.2,0.2-0.4,0.3-0.6,0.4c-0.3,0-0.5,0-0.7-0.2l-2.6-2c-0.2-0.2-0.3-0.4-0.4-0.6
						c0-0.3,0-0.5,0.2-0.7l1.5-1.9l1.5,1.2l-0.9,1.2l1.1,0.8l2.8-3.6l-1.9-1.4c-0.2-0.2-0.3-0.4-0.4-0.6c0-0.3,0-0.5,0.2-0.7
						l3.5-4.5c0.2-0.2,0.4-0.3,0.6-0.4c0.3,0,0.5,0,0.7,0.2l2.6,2c0.2,0.2,0.3,0.4,0.4,0.6c0,0.3,0,0.5-0.2,0.7l-2.6,3.4l-1.5-1.2
						l2-2.6l-1.1-0.8l-2.3,3l1.9,1.4c0.2,0.2,0.3,0.4,0.4,0.6c0,0.3,0,0.5-0.2,0.7L1937.5-451z"/>
					<path style="fill:#383433;" d="M1958.9-428.2l-0.5-1.3l-5.2,1.9l-0.7-1.8l12.4-4.6c0.2-0.1,0.5-0.1,0.7,0
						c0.3,0.1,0.4,0.3,0.5,0.5l1.2,3.1c0.1,0.2,0.1,0.5,0,0.7c-0.1,0.3-0.3,0.4-0.5,0.5l-12.4,4.6l-0.7-1.8L1958.9-428.2z
						 M1960.3-430.1l0.5,1.3l4.4-1.7l-0.5-1.3L1960.3-430.1z"/>
					<path style="fill:#383433;" d="M1967.9-421.4l-0.3-1.3l-11.9,2.9l-0.5-1.9l11.9-2.9l-0.3-1.3l1.9-0.5l1.1,4.5L1967.9-421.4z"/>
					<path style="fill:#383433;" d="M1957.9-411.9c-0.3,0-0.5,0-0.7-0.2s-0.3-0.4-0.4-0.6l-0.4-3.3c0-0.3,0-0.5,0.2-0.7
						s0.4-0.3,0.6-0.4l12.2-1.5c0.3,0,0.5,0,0.7,0.2s0.3,0.4,0.4,0.6l0.4,3.3c0,0.3,0,0.5-0.2,0.7s-0.4,0.3-0.6,0.4L1957.9-411.9z
						 M1958.7-414l10.2-1.3l-0.2-1.4l-10.2,1.3L1958.7-414z"/>
					<path style="fill:#383433;" d="M1957.1-403.7v-1.9l12.3,0.1v-0.5l-12.3-0.1v-1.9l12.3,0.1v-0.5l-12.3-0.1v-1.9l13.2,0.1
						c0.3,0,0.5,0.1,0.7,0.3c0.2,0.2,0.3,0.4,0.3,0.7v4.8c0,0.2-0.1,0.5-0.3,0.7c-0.2,0.2-0.4,0.3-0.7,0.3L1957.1-403.7z"/>
					<path style="fill:#383433;" d="M1956.7-400.1l0.2-1.9l14.1,1.6l-0.2,1.9L1956.7-400.1z"/>
					<path style="fill:#383433;" d="M1956.4-393.1c-0.3-0.1-0.5-0.2-0.6-0.4c-0.2-0.2-0.2-0.5-0.1-0.7l0.7-3.2
						c0.1-0.3,0.2-0.5,0.4-0.6c0.2-0.2,0.5-0.2,0.7-0.1l12,2.5c0.3,0.1,0.5,0.2,0.6,0.4c0.2,0.2,0.2,0.5,0.1,0.7l-0.7,3.2
						c-0.1,0.3-0.2,0.5-0.4,0.6c-0.2,0.2-0.5,0.2-0.7,0.1l-4.1-0.9l0.4-1.9l3.2,0.7l0.3-1.3l-10.1-2.1l-0.3,1.3l1.4,0.3l-0.4,1.9
						L1956.4-393.1z"/>
					<path style="fill:#383433;" d="M1950.6-380.7l0.7-1.4c0.1-0.2,0.3-0.4,0.6-0.5c0.3-0.1,0.5-0.1,0.7,0l1.9,0.9
						c0.2,0.1,0.5,0.1,0.7,0c0.3-0.1,0.4-0.3,0.6-0.5l0.2-0.3l-3.7-1.7l0.8-1.8l12,5.6c0.2,0.1,0.4,0.3,0.5,0.6
						c0.1,0.3,0.1,0.5,0,0.7l-1.4,3c-0.1,0.2-0.3,0.4-0.6,0.5s-0.5,0.1-0.7,0l-6.1-2.8c-0.2-0.1-0.4-0.3-0.5-0.6
						c-0.1-0.3-0.1-0.5,0-0.7c-0.1,0.2-0.3,0.4-0.5,0.5s-0.5,0.1-0.7,0l-2.4-1.1l-0.3,0.6L1950.6-380.7z M1958.5-379.9l4.3,2
						l0.6-1.2l-4.3-2L1958.5-379.9z"/>
					<path style="fill:#383433;" d="M1953.2-374.1l0.8-1.2l-3.1-1.9l-0.7,1.2l1.2,0.8l-1,1.7l-2.1-1.3c-0.2-0.1-0.4-0.3-0.4-0.6
						c-0.1-0.3,0-0.5,0.1-0.7l1.7-2.8c0.1-0.2,0.3-0.4,0.6-0.4c0.3-0.1,0.5,0,0.7,0.1l10.4,6.5c0.2,0.1,0.4,0.3,0.4,0.6
						c0.1,0.3,0,0.5-0.1,0.7l-1.7,2.8c-0.1,0.2-0.3,0.4-0.6,0.4s-0.5,0-0.7-0.1l-3.6-2.2l1-1.7l2.8,1.7l0.7-1.2l-4-2.5l-0.8,1.2
						L1953.2-374.1z"/>
					<path style="fill:#383433;" d="M1944.1-369.5c-0.2-0.2-0.3-0.4-0.3-0.7c0-0.3,0-0.5,0.2-0.7l2.1-2.6c0.2-0.2,0.4-0.3,0.7-0.3
						c0.3,0,0.5,0,0.7,0.2l9.6,7.7c0.2,0.2,0.3,0.4,0.3,0.7c0,0.3,0,0.5-0.2,0.7l-2.1,2.6c-0.2,0.2-0.4,0.3-0.7,0.3
						c-0.3,0-0.5,0-0.7-0.2l-3.3-2.6l1.2-1.5l2.5,2l0.9-1.1l-8-6.5l-0.9,1.1l1.1,0.9l-1.2,1.5L1944.1-369.5z"/>
					<path style="fill:#383433;" d="M1939.3-364.6c-0.2-0.2-0.3-0.4-0.3-0.7c0-0.3,0.1-0.5,0.3-0.7l2.4-2.3c0.2-0.2,0.4-0.3,0.7-0.3
						c0.3,0,0.5,0.1,0.7,0.3l8.6,8.8c0.2,0.2,0.3,0.4,0.3,0.7c0,0.3-0.1,0.5-0.3,0.7l-2.4,2.3c-0.2,0.2-0.4,0.3-0.7,0.3
						s-0.5-0.1-0.7-0.3L1939.3-364.6z M1941.4-365.3l7.2,7.4l1-1l-7.2-7.4L1941.4-365.3z"/>
					<path style="fill:#383433;" d="M1932.9-360.8l1.3-1c0.2-0.2,0.4-0.2,0.7-0.2c0.3,0,0.5,0.2,0.6,0.4l1.3,1.7
						c0.2,0.2,0.4,0.3,0.6,0.4c0.3,0,0.5,0,0.7-0.2l0.3-0.2l-2.5-3.2l1.5-1.2l8.1,10.5c0.2,0.2,0.2,0.4,0.2,0.7
						c0,0.3-0.2,0.5-0.4,0.6l-2.6,2c-0.2,0.2-0.4,0.2-0.7,0.2c-0.3,0-0.5-0.2-0.6-0.4l-4.1-5.3c-0.2-0.2-0.2-0.4-0.2-0.7
						c0-0.3,0.2-0.5,0.4-0.6c-0.2,0.2-0.5,0.2-0.7,0.2c-0.3,0-0.5-0.2-0.6-0.4l-1.6-2.1l-0.5,0.4L1932.9-360.8z M1939.5-356.4
						l2.9,3.8l1.1-0.8l-2.9-3.8L1939.5-356.4z"/>
					<path style="fill:#383433;" d="M1928.1-356.8c-0.1-0.2-0.2-0.5-0.1-0.7c0.1-0.3,0.2-0.5,0.4-0.6l2.9-1.7
						c0.2-0.1,0.5-0.2,0.7-0.1c0.3,0.1,0.5,0.2,0.6,0.4l6.2,10.5c0.1,0.2,0.2,0.5,0.1,0.7c-0.1,0.3-0.2,0.5-0.4,0.6l-2.9,1.7
						c-0.2,0.1-0.5,0.2-0.7,0.1c-0.3-0.1-0.5-0.2-0.6-0.4L1928.1-356.8z M1930.3-356.9l5.3,8.9l1.2-0.7l-5.3-8.9L1930.3-356.9z"/>
					<path style="fill:#383433;" d="M1921.9-353.9c-0.1-0.2-0.1-0.5,0-0.7c0.1-0.3,0.3-0.4,0.5-0.5l3-1.3c0.2-0.1,0.5-0.1,0.7,0
						c0.3,0.1,0.4,0.3,0.5,0.5l1,2.2l-1.8,0.8l-0.6-1.3l-1.2,0.6l1.9,4.2l2.1-0.9c0.2-0.1,0.5-0.1,0.7,0c0.3,0.1,0.4,0.3,0.5,0.5
						l2.3,5.2c0.1,0.2,0.1,0.5,0,0.7c-0.1,0.3-0.3,0.4-0.5,0.5l-3,1.3c-0.2,0.1-0.5,0.1-0.7,0s-0.4-0.3-0.5-0.5l-1.7-3.9l1.8-0.8
						l1.3,3l1.2-0.6l-1.5-3.4l-2.1,0.9c-0.2,0.1-0.5,0.1-0.7,0c-0.3-0.1-0.4-0.3-0.5-0.5L1921.9-353.9z"/>
					<path style="fill:#383433;" d="M1891.6-346.1l1.3,0.2l0.8-5.5l1.9,0.3l-1.9,13.1c0,0.3-0.2,0.5-0.4,0.6
						c-0.2,0.2-0.5,0.2-0.7,0.2l-3.3-0.5c-0.3,0-0.5-0.2-0.6-0.4c-0.2-0.2-0.2-0.5-0.2-0.7l1.9-13.1l1.9,0.3L1891.6-346.1z
						 M1892.7-344l-1.3-0.2l-0.7,4.7l1.3,0.2L1892.7-344z"/>
					<path style="fill:#383433;" d="M1881.3-341.6l1.3,0.4l3.2-11.8l1.9,0.5l-3.2,11.8l1.3,0.4l-0.5,1.9l-4.5-1.2L1881.3-341.6z"/>
					<path style="fill:#383433;" d="M1877.9-354.9c0.1-0.2,0.3-0.4,0.5-0.5c0.3-0.1,0.5-0.1,0.7,0l3.1,1.2c0.2,0.1,0.4,0.3,0.5,0.5
						c0.1,0.3,0.1,0.5,0,0.7l-4.5,11.4c-0.1,0.2-0.3,0.4-0.5,0.5c-0.3,0.1-0.5,0.1-0.7,0l-3.1-1.2c-0.2-0.1-0.4-0.3-0.5-0.5
						c-0.1-0.3-0.1-0.5,0-0.7L1877.9-354.9z M1879.3-353.2l-3.8,9.6l1.3,0.5l3.8-9.6L1879.3-353.2z"/>
					<path style="fill:#383433;" d="M1871-359.6l1.7,0.9l-6,10.7l0.4,0.2l6-10.7l1.7,0.9l-6,10.7l0.4,0.2l6-10.7l1.7,0.9l-6.4,11.6
						c-0.1,0.2-0.3,0.4-0.6,0.5s-0.5,0-0.7-0.1l-4.2-2.3c-0.2-0.1-0.4-0.3-0.4-0.6c-0.1-0.3-0.1-0.5,0.1-0.7L1871-359.6z"/>
					<path style="fill:#383433;" d="M1868.1-361.6l1.6,1.1l-8.2,11.6l-1.6-1.1L1868.1-361.6z"/>
					<path style="fill:#383433;" d="M1862.1-365.3c0.2-0.2,0.4-0.3,0.7-0.3c0.3,0,0.5,0.1,0.7,0.2l2.5,2.2c0.2,0.2,0.3,0.4,0.3,0.7
						c0,0.3-0.1,0.5-0.2,0.7l-8,9.3c-0.2,0.2-0.4,0.3-0.7,0.3c-0.3,0-0.5-0.1-0.7-0.2l-2.5-2.2c-0.2-0.2-0.3-0.4-0.3-0.7
						c0-0.3,0.1-0.5,0.2-0.7l2.8-3.2l1.5,1.3l-2.1,2.5l1,0.9l6.7-7.8l-1-0.9l-1,1.1l-1.5-1.3L1862.1-365.3z"/>
					<path style="fill:#383433;" d="M1854.1-376.3l0.9,1.3c0.2,0.2,0.2,0.5,0.2,0.7c0,0.3-0.2,0.5-0.4,0.6l-1.7,1.2
						c-0.2,0.2-0.3,0.4-0.4,0.6c0,0.3,0,0.5,0.2,0.7l0.2,0.3l3.3-2.4l1.2,1.6l-10.7,7.8c-0.2,0.2-0.4,0.2-0.7,0.2
						c-0.3,0-0.5-0.2-0.6-0.4l-1.9-2.7c-0.2-0.2-0.2-0.5-0.2-0.7c0-0.3,0.2-0.5,0.4-0.6l5.4-4c0.2-0.2,0.5-0.2,0.7-0.2
						c0.3,0,0.5,0.2,0.6,0.4c-0.2-0.2-0.2-0.5-0.2-0.7c0-0.3,0.2-0.5,0.4-0.6l2.1-1.6l-0.4-0.5L1854.1-376.3z M1849.5-369.8
						l-3.8,2.8l0.8,1.1l3.8-2.8L1849.5-369.8z"/>
					<path style="fill:#383433;" d="M1847.1-377.3l0.7,1.2l3.2-1.8l-0.7-1.2l-1.3,0.7l-1-1.7l2.1-1.2c0.2-0.1,0.5-0.2,0.7-0.1
						c0.3,0.1,0.5,0.2,0.6,0.5l1.6,2.9c0.1,0.2,0.2,0.5,0.1,0.7c-0.1,0.3-0.2,0.5-0.5,0.6l-10.7,6c-0.2,0.1-0.5,0.2-0.7,0.1
						c-0.3-0.1-0.5-0.2-0.6-0.5l-1.6-2.9c-0.1-0.2-0.2-0.5-0.1-0.7c0.1-0.3,0.2-0.5,0.5-0.6l3.7-2.1l1,1.7l-2.8,1.6l0.7,1.2l4.1-2.3
						l-0.7-1.2L1847.1-377.3z"/>
					<path style="fill:#383433;" d="M1847.4-387.5c0.2-0.1,0.5-0.1,0.7,0c0.3,0.1,0.4,0.3,0.5,0.5l1.3,3.1c0.1,0.2,0.1,0.5,0,0.7
						c-0.1,0.3-0.3,0.4-0.5,0.5l-11.3,4.7c-0.2,0.1-0.5,0.1-0.7,0c-0.3-0.1-0.4-0.3-0.5-0.5l-1.3-3.1c-0.1-0.2-0.1-0.5,0-0.7
						c0.1-0.3,0.3-0.4,0.5-0.5l3.9-1.6l0.7,1.8l-3,1.2l0.5,1.3l9.5-3.9l-0.5-1.3l-1.4,0.6l-0.7-1.8L1847.4-387.5z"/>
					<path style="fill:#383433;" d="M1845.4-394c0.2-0.1,0.5,0,0.7,0.1s0.4,0.3,0.5,0.6l0.9,3.2c0.1,0.3,0,0.5-0.1,0.7
						s-0.3,0.4-0.6,0.5l-11.8,3.3c-0.2,0.1-0.5,0-0.7-0.1s-0.4-0.3-0.5-0.6l-0.9-3.2c-0.1-0.2,0-0.5,0.1-0.7s0.3-0.4,0.6-0.5
						L1845.4-394z M1845-391.9l-9.9,2.8l0.4,1.3l9.9-2.8L1845-391.9z"/>
					<path style="fill:#383433;" d="M1845.2-401.5l0.2,1.6c0,0.3,0,0.5-0.2,0.7s-0.4,0.4-0.6,0.4l-2.1,0.3c-0.3,0-0.5,0.2-0.6,0.4
						c-0.2,0.2-0.2,0.5-0.2,0.7l0.1,0.4l4-0.6l0.3,1.9l-13.1,2c-0.3,0-0.5,0-0.7-0.2s-0.4-0.4-0.4-0.6l-0.5-3.3c0-0.3,0-0.5,0.2-0.7
						s0.4-0.4,0.6-0.4l6.6-1c0.3,0,0.5,0,0.7,0.2s0.4,0.4,0.4,0.6c0-0.3,0-0.5,0.2-0.7s0.4-0.3,0.6-0.4l2.6-0.4l-0.1-0.6
						L1845.2-401.5z M1838.1-397.8l-4.7,0.7l0.2,1.3l4.7-0.7L1838.1-397.8z"/>
					<path style="fill:#383433;" d="M1843.9-407.6c0.3,0,0.5,0.1,0.7,0.3c0.2,0.2,0.3,0.4,0.3,0.7l0.1,3.3c0,0.3-0.1,0.5-0.3,0.7
						c-0.2,0.2-0.4,0.3-0.7,0.3l-12.3,0.4c-0.3,0-0.5-0.1-0.7-0.3c-0.2-0.2-0.3-0.4-0.3-0.7l-0.1-3.3c0-0.3,0.1-0.5,0.3-0.7
						c0.2-0.2,0.4-0.3,0.7-0.3L1843.9-407.6z M1843-405.6l-10.3,0.3v1.4l10.3-0.3V-405.6z"/>
					<path style="fill:#383433;" d="M1844.4-414.4c0.3,0,0.5,0.1,0.7,0.4c0.2,0.2,0.3,0.4,0.2,0.7l-0.3,3.3c0,0.3-0.1,0.5-0.3,0.7
						c-0.2,0.2-0.4,0.3-0.7,0.2l-2.4-0.2l0.2-1.9l1.5,0.1l0.1-1.4l-4.6-0.4l-0.2,2.3c0,0.3-0.1,0.5-0.4,0.7
						c-0.2,0.2-0.4,0.3-0.7,0.2l-5.7-0.5c-0.3,0-0.5-0.1-0.7-0.4c-0.2-0.2-0.3-0.4-0.2-0.7l0.3-3.3c0-0.3,0.1-0.5,0.4-0.7
						c0.2-0.2,0.4-0.3,0.7-0.2l4.2,0.4l-0.2,1.9l-3.2-0.3l-0.1,1.4l3.8,0.3l0.2-2.3c0-0.3,0.1-0.5,0.4-0.7c0.2-0.2,0.4-0.3,0.7-0.2
						L1844.4-414.4z"/>
				</g>
			</g>
		</g>
		<g>
			<path style="fill:#383433;" d="M1840.8-431.6c0.2-0.5,0.4-1.1,1-1.4c0.9-0.5,2-0.5,2.8,0.3c0.5,0.5,0.6,1.1,0.6,1.8
				c-0.1,0.6-0.5,1.3-1.1,1.7c-0.7,0.5-1.7,0.3-2.3-0.1C1841-429.9,1840.6-430.7,1840.8-431.6z"/>
			<path style="fill:#383433;" d="M1949.1-446c0.2-0.5,0.4-1.1,1-1.4c0.9-0.5,2-0.5,2.8,0.3c0.5,0.5,0.6,1.1,0.6,1.8
				c-0.1,0.6-0.5,1.3-1.1,1.7c-0.7,0.5-1.7,0.3-2.3-0.1C1949.3-444.3,1948.9-445.2,1949.1-446z"/>
			<path style="fill:#383433;" d="M1908.1-344c0.2-0.5,0.4-1.1,1-1.4c1-0.5,2-0.5,2.8,0.3c0.5,0.5,0.6,1.1,0.6,1.8
				c-0.1,0.6-0.5,1.3-1.1,1.7c-0.7,0.5-1.7,0.3-2.3-0.1C1908.4-342.3,1908-343.1,1908.1-344z"/>
		</g>
	</g>
</g>
<g id="Layer_4" style="display:none;">
	<g id="arrows_1_" style="display:inline;">
		<g>
			<path style="fill:#383433;" d="M1444.6-468.8h-52h-83.8c-6,0-6,0-6,1v0.3l73.9,140.7l73.9-140.7v-0.3
				C1450.5-468.8,1450.5-468.8,1444.6-468.8z M1376.6-331.3l-71.1-135.5c6.6,0,30.2,0,30.2,0c1.1,0,97.9,0,112,0L1376.6-331.3z"/>
			<path style="fill:#383433;" d="M1358.2-356c-27.8-6.9-47.1-31.7-47.1-60.4c0-7.7,0.4-15.8,3.3-23c0.2-0.6-0.1-1.2-0.6-1.5
				c-0.6-0.2-1.2,0.1-1.5,0.6c-3,7.6-3.4,15.9-3.4,23.8c0,29.7,20.1,55.4,48.8,62.5c0.1,0,0.2,0,0.3,0c0.5,0,1-0.3,1.1-0.8
				C1359.2-355.2,1358.8-355.8,1358.2-356z"/>
			<path style="fill:#383433;" d="M1439.4-441.1c-0.6,0.2-0.9,0.9-0.6,1.5c3,7.4,3.4,15.5,3.4,23.3c0,28.4-19.2,53.2-46.6,60.2
				c-0.6,0.2-1,0.8-0.8,1.4c0.1,0.5,0.6,0.8,1.1,0.8c0.1,0,0.2,0,0.3,0c28.4-7.3,48.3-33,48.3-62.4c0-8-0.4-16.4-3.5-24.1
				C1440.7-441,1440-441.3,1439.4-441.1z"/>
			<path style="fill:#383433;" d="M1336.1-469.5c0.3,0,0.5-0.1,0.7-0.3c11.1-9.3,25.3-14.4,39.8-14.4c14.2,0,28.1,4.9,39.1,13.8
				c0.5,0.4,1.2,0.3,1.6-0.2s0.3-1.2-0.2-1.6c-11.4-9.2-25.8-14.3-40.5-14.3c-15,0-29.7,5.3-41.2,14.9c-0.5,0.4-0.5,1.1-0.1,1.6
				C1335.5-469.7,1335.8-469.5,1336.1-469.5z"/>
		</g>
		<g>
			<g>
				<g>
					<path style="fill:#383433;" d="M1423.1-438.1c-1-10.9-4-15.4-6.9-19.3c-0.1-0.1-0.3-0.2-0.4-0.1c-0.2,0.1-0.2,0.2-0.2,0.4
						c2.5,6,4.8,12,5,17.6l-1.4-1.4c-0.2-0.1-1.4-1.4-2.8-2.4c-0.5-2.6-1-4.3-2.9-6.4c-0.1-0.1-0.2-0.1-0.3,0
						c-0.1,0-0.1,0.1-0.1,0.2c0.7,2.2,1.5,4.2,1.5,5.3c-2.6-0.8-4-0.8-5.9-0.8c-0.1,0-0.1,0-0.1,0.1s0,0.1,0.1,0.2
						c2.3,1.3,6.1,2,6.8,3.9c1.1,2.7,1.8,7.3,0.3,9.3s-5,4-8.8,6.4l-4,7.7c0,0.1,0,0.1,0,0.2c1.2-1.5,2.6-2.8,4.3-4.1
						c3.9-2.9,6.4-4.5,8.9-5.7c2.1-1,3.8-3.1,5.6-4.2c1.8-1.2,2.8-1.6,3.2-3.5C1425.1-435.8,1424.4-437,1423.1-438.1z M1420.7-435.6
						c-0.2,0.4-0.4,0.8-0.8,1c-0.2,0.1-0.5,0.1-0.7,0s-0.4-0.4-0.4-0.6c-0.1-1.4-0.6-2.5-1.2-3.8l3,2.7
						C1420.7-436.2,1420.8-435.9,1420.7-435.6z"/>
				</g>
				<g>
					<path style="fill:#383433;" d="M1337.6-431.6c-1.5-2-0.8-6.7,0.3-9.3c0.7-1.9,4.5-2.6,6.8-3.9c0.1,0,0.1-0.1,0.1-0.2
						s-0.1-0.1-0.1-0.1c-2,0-3.4,0-5.9,0.8c0-1.1,0.8-3.1,1.5-5.3c0-0.1,0-0.2-0.1-0.2c-0.1-0.1-0.2,0-0.3,0
						c-1.9,2.1-2.4,3.8-2.9,6.4c-1.4,1-2.6,2.3-2.8,2.4l-1.4,1.4c0.2-5.7,2.5-11.6,5-17.6c0-0.2,0-0.3-0.2-0.4s-0.3,0-0.4,0.1
						c-2.9,3.9-5.8,8.4-6.9,19.3c-1.3,1.1-2,2.3-1.8,3.3c0.4,1.9,1.4,2.3,3.2,3.5c1.9,1.2,3.6,3.3,5.6,4.2c2.5,1.2,4.9,2.8,8.9,5.7
						c1.4,1,2.5,2.1,3.5,3.2l-3.9-7.4C1342.3-427.8,1339-429.7,1337.6-431.6z M1334.6-435.2c0,0.3-0.2,0.5-0.4,0.6
						c-0.2,0.1-0.5,0.1-0.7,0c-0.4-0.2-0.7-0.6-0.8-1c-0.1-0.3,0-0.6,0.2-0.7l3-2.7C1335.2-437.7,1334.7-436.7,1334.6-435.2z"/>
				</g>
			</g>
			<g>
				<polygon style="fill:#383433;" points="1348,-428.8 1376.6,-374.3 1405.2,-428.8 				"/>
			</g>
		</g>
		<g>
			<path style="fill:#383433;" d="M1349.1-454.1h2.5v9h2.1v-9h2.5v19.4h-2.5v-8h-2.1v8h-2.5V-454.1z"/>
			<path style="fill:#383433;" d="M1358.5-454.1h2.5v19.4h-2.5V-454.1z"/>
			<path style="fill:#383433;" d="M1363.2-454.1h5.4c0.9,0,1.7,0.8,1.7,1.7v7.3c0,0.9-0.8,1.6-1.7,1.6h-2.9v8.8h-2.5v-8.8V-454.1z
				 M1367.8-451.6h-2.1v5.6h2.1V-451.6z"/>
			<path style="fill:#383433;" d="M1374.4-440.5v3.4h2.1v-6.3h-2.9c-1,0-1.7-0.8-1.7-1.6v-7.4c0-1,0.7-1.7,1.7-1.7h3.8
				c0.9,0,1.7,0.7,1.7,1.6v4.1h-2.5v-3.2h-2.1v5.7h2.9c0.9,0,1.7,0.8,1.7,1.7v8c0,0.9-0.8,1.6-1.7,1.6h-3.8c-0.9,0-1.7-0.7-1.7-1.6
				v-4.2L1374.4-440.5L1374.4-440.5z"/>
			<path style="fill:#383433;" d="M1382.7-451.6h-2.2v-2.5h6.9v2.5h-2.2v16.9h-2.5L1382.7-451.6L1382.7-451.6z"/>
			<path style="fill:#383433;" d="M1395.2-434.7h-6.4v-19.4h6.2v2.5h-3.7v5.4h2.6v2.5h-2.6v6.6h3.9V-434.7z"/>
			<path style="fill:#383433;" d="M1401.8-442.9h-2.1v8.2h-2.5v-19.4h5.1c0.9,0,1.7,0.8,1.7,1.7v6.8c0,0.7-0.4,1.2-0.9,1.4
				c0.8,0.2,1.2,0.9,1.2,1.6v8h-2.5L1401.8-442.9L1401.8-442.9z M1399.6-445.4h1.8v-6.2h-1.8V-445.4z"/>
		</g>
		<path style="fill:#FFFFFF;" d="M1387.5-405.9h-2.5l0,0l-0.3-0.3h1.7c0.2,0,0.4-0.2,0.4-0.4s-0.2-0.4-0.4-0.4h-2.4l-0.3-0.3h1.7
			c0.2,0,0.4-0.2,0.4-0.4c0-0.2-0.2-0.4-0.4-0.4h-2.4l-5.4-5.4l7.5-7.5c0.1,0.2,0.2,0.5,0.3,0.7l0.2,0.9l0.1,0.1c0,0,0.1,0,0.1-0.1
			l1.2-4.6v-0.1h-0.1l-4.4,1.2c-0.1,0-0.1,0.1-0.1,0.2s0.1,0.1,0.1,0.1l0.7,0.2c0.3,0.1,0.7,0.2,0.9,0.4l-7.6,7.6l-7.5-7.5
			c0.3-0.2,0.6-0.3,0.9-0.4l0.9-0.2l0.1-0.1c0,0,0-0.1-0.1-0.1l-4.6-1.2h-0.1v0.1l1.2,4.4c0,0.1,0.1,0.1,0.2,0.1s0.1-0.1,0.1-0.1
			l0.2-0.7c0.1-0.3,0.2-0.5,0.3-0.8l7.5,7.5l-5.4,5.4h-2.4c-0.2,0-0.4,0.2-0.4,0.4c0,0.2,0.2,0.4,0.4,0.4h1.7l-0.3,0.3h-2.4
			c-0.2,0-0.4,0.2-0.4,0.4s0.2,0.4,0.4,0.4h1.7l-0.3,0.3h-2.4c-0.2,0-0.4,0.2-0.4,0.4s0.2,0.4,0.4,0.4h2.6v2.6
			c0,0.2,0.2,0.4,0.4,0.4s0.4-0.2,0.4-0.4v-2.4l0.3-0.3v1.7c0,0.2,0.2,0.4,0.4,0.4c0.2,0,0.4-0.2,0.4-0.4v-2.4l0.3-0.3v1.7
			c0,0.2,0.2,0.4,0.4,0.4s0.4-0.2,0.4-0.4v-2.4l5.4-5.4l5.4,5.4v2.4c0,0.2,0.2,0.4,0.4,0.4s0.4-0.2,0.4-0.4v-1.7l0.3,0.3v2.4
			c0,0.2,0.2,0.4,0.4,0.4c0.2,0,0.4-0.2,0.4-0.4v-1.7l0.3,0.3l0,0v2.5c0,0.2,0.2,0.4,0.4,0.4s0.4-0.2,0.4-0.4v-2.6h2.6
			c0.2,0,0.4-0.2,0.4-0.4C1387.8-405.7,1387.7-405.9,1387.5-405.9z"/>
	</g>
</g>
<g id="Layer_5" style="display:none;">
	<g id="cube_1_" style="display:inline;">
		<path style="fill:#383433;" d="M1075.2-470.6l-46.1,46.1v-33.3c0-7,5.8-12.8,12.8-12.8L1075.2-470.6L1075.2-470.6z M1078.3-470.6
			l-49.2,49.2v32.1l46.7,46.7h36l49.2-49.2v-32.1l-46.7-46.7H1078.3L1078.3-470.6z M1148.2-342.6c7,0,12.8-5.8,12.8-12.8v-33.3
			l-46.1,46.1L1148.2-342.6L1148.2-342.6z M1029.1-355.4c0,7,5.8,12.8,12.8,12.8h30.8l-43.7-43.7v30.9H1029.1z M1161-457.8
			c0-7-5.8-12.8-12.8-12.8h-30.8L1161-427V-457.8L1161-457.8z M1171.1-416.8L1161-427v3.1l8.6,8.6c4.1,4.1,4.1,10.8,0,14.9l-8.6,8.6
			v3.1l10.1-10.1C1176.1-403.8,1176.1-411.9,1171.1-416.8z M1020.5-397.9c-2-2-3.1-4.6-3.1-7.5c0-2.8,1.1-5.5,3.1-7.5l8.6-8.6v-3.1
			l-10.1,10.2c-2.4,2.4-3.7,5.6-3.7,9s1.3,6.6,3.7,9l10.1,10.1v-3.1L1020.5-397.9z M1101.3-332.1c-2,2-4.6,3.1-7.5,3.1
			c-2.9,0-5.5-1.1-7.5-3.1l-10.5-10.5h-3.1l12.1,12.1c2.4,2.4,5.6,3.7,9,3.7c3.4,0,6.6-1.3,9-3.7l12.1-12.1h-3.1L1101.3-332.1z
			 M1088.8-481.2c2-2,4.6-3.1,7.5-3.1c2.8,0,5.5,1.1,7.5,3.1l10.5,10.5h3.1l-12.1-12.1c-2.4-2.4-5.6-3.7-9-3.7c-3.4,0-6.6,1.3-9,3.7
			l-12.1,12.1h3.1L1088.8-481.2z"/>
		<path style="fill:#FFFFFF;" d="M1118.3-402.3c0,0-3.1-4.9-3.4-5.3s-0.7-0.3-0.7-0.3c0.1-0.2-0.1-0.6-0.1-0.6s-2.9-4.7-3.3-5.4
			c-0.5-0.7-1-0.8-1-0.8s-3.5-0.4-3.6-0.4c-0.1,0,0-0.1,0-0.1s1.1-2.8,1.4-3.4c0.2-0.6,0-1.1,0-1.1s-3.2-5.2-3.5-5.7
			c-0.3-0.4-1.6-0.2-1.6-0.2s-4.9,1.6-5.5,1.8c-0.6,0.2-0.6,0.5-0.6,0.5v0.1c0.3-0.5,0.8-0.5,0.8-0.5s4.4-1.4,5-1.6
			c0.5-0.1,0.3,0.3,0.3,0.3s-1.2,3.2-1.5,3.6c-0.3,0.4-0.7,0.5-0.7,0.5s-4.2,1.3-4.9,1.5s-0.4-0.4-0.4-0.4l1.3-3.1
			c0,0-0.1,0-0.1-0.1c-0.3-0.4-1-0.2-1-0.2s-5.3,1.8-5.6,1.9c-0.3,0.1-0.3,0.4-0.3,0.4l0,0c0.3-0.3,0.6-0.4,0.6-0.4s4-1.3,4.5-1.4
			c0.6-0.2,0.3,0.2,0.3,0.2s-1.4,3.3-1.7,3.6c-0.3,0.4-0.7,0.5-0.7,0.5s-3.8,1.1-4.5,1.3c-0.7,0.2-0.4-0.4-0.4-0.4l1.5-3.2
			c0-0.1,0.1-0.1,0.1-0.1l0,0c-0.4-0.3-1-0.2-1-0.2s-4.4,1.4-4.9,1.6s-0.8,0.6-0.8,0.6s-2.4,4.1-2.6,4.5s0,0.6,0,0.6h0.1
			c0,0,0.1,0,0.1,0.1l0,0c0,0,4-1.2,4.6-1.4c0.6-0.2,0.3,0.3,0.3,0.3s-1.9,3.7-2.2,4.1s-0.7,0.5-0.7,0.5s-3.9,1-4.6,1.2
			s-0.4-0.4-0.4-0.4l2.1-3.6c0.2-0.3,0.5-0.5,0.7-0.6c-0.4,0-0.6,0.4-0.6,0.4s-2.7,4.5-2.9,4.9s0.1,0.7,0.1,0.7l0.1,0.1
			c0.2-0.1,0.4-0.2,0.4-0.2s3.9-1,4.5-1.2s0.3,0.3,0.3,0.3s-2,3.9-2.3,4.3s-0.7,0.5-0.7,0.5s-3.9,1-4.6,1.2s-0.4-0.4-0.4-0.4l2.3-4
			c0.1-0.2,0.2-0.3,0.4-0.4c-0.3-0.1-0.5,0.1-0.5,0.1s-2.6,4.5-3,5.1c-0.3,0.5,0,1.1,0,1.1s4.1,5.2,4.3,5.3c0.2,0.2,0.8,0.1,0.8,0.1
			l2.8-0.6c0,0,1.4,1.8,1.6,1.9c0.1,0.1,0.2,0.1,0.3,0c-0.2-0.2-0.4-0.4-0.4-0.4s-1.1-1.4-1.2-1.5c0-0.1,0.1-0.1,0.1-0.1
			s1.4-0.3,1.5-0.3c0.1,0,0.3,0.1,0.3,0.1s2,2.5,2.3,2.9c0.4,0.5-0.3,0.2-0.3,0.2s-1.7-0.7-2.1-0.9c-0.3,0.2-0.1,0.4-0.1,0.4
			s3,4,3.3,4.4c0.3,0.4,0.7,0.6,0.7,0.6s13.4,6.5,13.7,6.6c0.4,0.2,0.9-0.1,0.9-0.1s5.1-5.6,5.3-5.8c0.2-0.2,0.1-0.9,0.1-0.9
			c0.5,0,0.8-0.1,0.8-0.1s4.6-5.2,4.9-5.5s0.2-1,0.2-1c0.6,0,0.9-0.2,0.9-0.2s4.3-5,4.7-5.4C1118.5-401.8,1118.3-402.3,1118.3-402.3
			z M1110-413.3c0,0,0.4-0.4,0.7,0c0.2,0.3,3,4.8,3,4.8s0.3,0.5,0,0.8c-0.3,0.3-4,4.7-4,4.7s-0.3,0.2-0.5,0
			c-0.2-0.2-3.4-4.8-3.4-4.8s-0.2-0.4,0.1-0.8C1106.1-409,1110-413.3,1110-413.3z M1107.8-401.2c0,0-3.8,4.3-4.2,4.7
			c-0.5,0.5-0.8,0-0.8,0l-2.8-3.8c1-0.7,1.4-2,1.4-2s1.1-3,1.2-3.1c0-0.1,0.1-0.3,0.1-0.3s0.9-0.9,1.2-1.2c0.4-0.4,0.8,0.1,0.8,0.1
			s2.7,4,3.1,4.5C1108.1-401.6,1107.8-401.2,1107.8-401.2z M1101.6-394.3c-0.3,0.3-4.6,5-4.6,5s-0.2,0.2-0.5,0
			c-0.2-0.2-3.7-4.6-3.7-4.6s-0.3-0.4,0-0.8c0.3-0.3,4.6-4.9,4.6-4.9s0.4-0.4,0.7,0c0.2,0.3,3.4,4.5,3.4,4.5
			S1101.9-394.6,1101.6-394.3z M1099.1-413.2c0.2,0.2,3.6,5.3,3.6,5.3s0.2,0.5,0.1,1c-0.2,0.5-1.9,4.5-1.9,4.5s-0.2,0.3-0.5-0.1
			s-3.6-5.2-3.6-5.2s-0.2-0.3,0-0.7c0.2-0.4,1.9-4.8,1.9-4.8S1098.9-413.6,1099.1-413.2z M1088.9-404.9c0,0-0.3-0.5,0.2-0.6
			c0.4-0.1,5.7-1.5,5.7-1.5s0.5-0.1,0.7,0.1c0.1,0.2,3.5,5.1,3.5,5.1s0.6,0.8-0.1,0.9c-0.5,0.1-5.4,1.2-5.4,1.2s-0.6,0.2-0.8-0.1
			C1092.6-400.1,1088.9-404.9,1088.9-404.9z M1097.6-413.3c0,0-1.5,4.3-1.8,4.7c-0.3,0.4-0.7,0.5-0.7,0.5s-5.1,1.3-5.8,1.5
			c-0.7,0.2-0.4-0.4-0.4-0.4l1.9-4.3c0.3-0.6,0.9-0.7,0.9-0.7s5-1.4,5.6-1.6C1097.8-413.7,1097.6-413.3,1097.6-413.3z M1091-399.9
			c0,0,0.5,0.7-0.1,0.8c-0.5,0.1-5.1,1.1-5.1,1.1s-0.5,0.1-0.8-0.1c-0.2-0.2-3.9-4.9-3.9-4.9s-0.3-0.4,0.2-0.6
			c0.4-0.1,5.3-1.2,5.3-1.2s0.5-0.1,0.6,0.1C1087.5-404.4,1091-399.9,1091-399.9z M1087.9-395.5l3.2,1.3c0,0,0.4,0.2,0.7,0.5
			c0.2,0.3,3.6,4.5,3.6,4.5s0.4,0.6-0.2,0.3c-0.5-0.2-3.6-1.7-3.6-1.7s-0.3-0.1-0.5-0.4c-0.2-0.3-3.4-4.3-3.4-4.3
			S1087.3-395.8,1087.9-395.5z M1104.1-425.1c0.2,0.2,3.2,5.2,3.2,5.2s0.2,0.5,0.1,1c-0.2,0.5-1.5,3.6-1.5,3.6s-0.2,0.3-0.5-0.1
			c-0.3-0.4-3.2-5.2-3.2-5.2s-0.2-0.3,0-0.7c0.2-0.4,1.6-3.7,1.6-3.7S1103.9-425.4,1104.1-425.1z M1101.3-419.5c0,0,0.2-0.4,0.4,0
			c0.2,0.2,3.5,5.3,3.5,5.3s0.2,0.5,0.1,1c-0.2,0.5-1.6,4.1-1.6,4.1s-0.2,0.3-0.5-0.1c-0.3-0.4-3.5-5.2-3.5-5.2s-0.2-0.3,0-0.7
			C1099.8-415.6,1101.3-419.5,1101.3-419.5z M1093.6-417.4c0.3-0.6,0.9-0.7,0.9-0.7s4.7-1.5,5.3-1.7c0.5-0.1,0.3,0.3,0.3,0.3
			s-1.5,3.8-1.8,4.2c-0.3,0.4-0.7,0.5-0.7,0.5s-4.5,1.3-5.2,1.5c-0.7,0.2-0.4-0.4-0.4-0.4L1093.6-417.4z M1080.9-415.1
			c-0.7,0.2-0.4-0.3-0.4-0.3l2-3.3c0.3-0.4,0.8-0.6,0.8-0.6s3.9-1.2,4.4-1.4c0.6-0.2,0.3,0.2,0.3,0.2s-1.8,3.3-2.1,3.7
			c-0.3,0.4-0.7,0.5-0.7,0.5S1081.6-415.3,1080.9-415.1z M1084.2-411.3l2-3.8c0.3-0.6,0.9-0.7,0.9-0.7s4.3-1.3,4.8-1.4
			c0.6-0.2,0.3,0.3,0.3,0.3s-1.7,4-2,4.4c-0.3,0.4-0.7,0.5-0.7,0.5s-4.2,1-4.9,1.2C1083.9-410.8,1084.2-411.3,1084.2-411.3z
			 M1081-404.9l2-4.2c0.3-0.5,0.9-0.7,0.9-0.7s4.6-1.1,5.2-1.3c0.6-0.2,0.3,0.3,0.3,0.3s-1.8,4.1-2.1,4.5s-0.7,0.5-0.7,0.5
			s-4.4,1.1-5.1,1.3C1080.6-404.3,1081-404.9,1081-404.9z M1078.4-396.2c0,0-0.6,0.1-0.8-0.1c-0.2-0.2-3.9-4.9-3.9-4.9
			s-0.3-0.4,0.2-0.6c0.4-0.1,4.9-1.3,4.9-1.3s0.5-0.1,0.6,0.1s3.7,4.8,3.7,4.8s0.5,0.7-0.1,0.8
			C1082.7-397.2,1078.4-396.2,1078.4-396.2z M1083.2-396.8c-0.1-0.1,0.1-0.1,0.1-0.1s0.3-0.1,0.6-0.1c0.3-0.1,0.5,0,0.5,0
			s1.4,0.6,1.7,0.7s0.6,0.5,0.6,0.5s3,3.8,3.4,4.3s-0.1,0.3-0.1,0.3s-2.7-1.3-3.2-1.5s-0.8-0.6-0.8-0.6S1083.3-396.7,1083.2-396.8z
			 M1089.5-387.9c-0.5-0.2-2.6-1.3-2.6-1.3s-0.3-0.1-0.5-0.4s-2.9-3.8-2.9-3.8s-0.3-0.5,0.3-0.2l2.6,1.3c0,0,0.4,0.2,0.7,0.5
			c0.2,0.3,2.7,3.6,2.7,3.6S1090.1-387.6,1089.5-387.9z M1094.3-385.5c-0.5-0.2-3.2-1.5-3.2-1.5s-0.3-0.1-0.5-0.4s-3-3.9-3-3.9
			s-0.3-0.5,0.3-0.2l3.2,1.6c0,0,0.4,0.2,0.6,0.5s2.8,3.6,2.8,3.6S1094.9-385.3,1094.3-385.5z M1099.8-382.9
			c-0.5-0.2-3.7-1.8-3.7-1.8s-0.3-0.1-0.5-0.4s-3-3.8-3-3.8s-0.3-0.5,0.3-0.2l3.2,1.3c0,0,0.4,0.2,0.7,0.5c0.2,0.3,3.3,4.1,3.3,4.1
			S1100.4-382.6,1099.8-382.9z M1106.3-388.4c-0.3,0.3-4.5,5-4.5,5s-0.2,0.2-0.5,0c-0.2-0.2-3.5-4.3-3.5-4.3s-0.3-0.4,0-0.8
			c0.3-0.3,4.5-5,4.5-5s0.4-0.4,0.7,0c0.2,0.3,3.2,4.3,3.2,4.3S1106.6-388.7,1106.3-388.4z M1112-394.9c-0.3,0.3-4.2,4.8-4.2,4.8
			s-0.3,0.2-0.5,0c-0.2-0.2-3.2-4.4-3.2-4.4s-0.3-0.4,0-0.8c0.3-0.3,4.2-4.8,4.2-4.8s0.4-0.4,0.7,0c0.2,0.3,3,4.4,3,4.4
			S1112.3-395.2,1112-394.9z M1117.9-401.4c-0.3,0.3-4.1,4.7-4.1,4.7s-0.3,0.2-0.5,0s-3.2-4.7-3.2-4.7s-0.2-0.4,0.1-0.8
			c0.3-0.3,4.2-4.6,4.2-4.6s0.4-0.4,0.7,0c0.2,0.3,2.8,4.6,2.8,4.6S1118.2-401.7,1117.9-401.4z"/>
		<g>
			<path style="fill:#FFFFFF;" d="M1108.9-360.4h-26.7c-0.6,0-1.1,0.3-1.1,0.6c0,0.4,0.5,0.6,1.1,0.6h26.7c0.6,0,1.1-0.3,1.1-0.6
				S1109.5-360.4,1108.9-360.4z"/>
			<path style="fill:#FFFFFF;" d="M1105.8-356.8h-20.5c-0.6,0-1.1,0.3-1.1,0.6c0,0.3,0.5,0.6,1.1,0.6h20.5c0.6,0,1.1-0.3,1.1-0.6
				C1106.9-356.6,1106.5-356.8,1105.8-356.8z"/>
		</g>
		<g id="text_7_">
			<g>
				<path style="fill:#FFFFFF;" d="M1128.6-407.4v-0.3h-0.4v-0.5l0.4-0.4h0.9v6.8h-0.9V-407.4z"/>
				<path style="fill:#FFFFFF;" d="M1134.5-402.3c0,0.3-0.3,0.6-0.6,0.6h-1.3h-0.1c-0.3,0-0.5-0.3-0.5-0.6v-1.5h0.9v1.2h0.7v-2.2h-1
					c-0.3,0-0.6-0.3-0.6-0.6v-2.7c0-0.3,0.3-0.5,0.6-0.5h1.3c0.3,0,0.6,0.3,0.6,0.6V-402.3L1134.5-402.3z M1133.6-407.6h-0.7v2h0.7
					V-407.6z"/>
				<path style="fill:#FFFFFF;" d="M1138.3-407.6h-1.7v-0.9h2.6v1.1l-1.1,5.8h-0.9L1138.3-407.6z"/>
				<path style="fill:#FFFFFF;" d="M1141.2-408.5h0.9v3.2h0.6v-3.2h0.9v3.2h0.6v0.9h-0.6v2.8h-0.9v-2.8h-1.5V-408.5z"/>
			</g>
			<g>
				<path style="fill:#FFFFFF;" d="M1052.3-401.7h-2.3v-6.8h2.2v0.9h-1.3v1.9h0.9v0.9h-0.9v2.3h1.4V-401.7L1052.3-401.7z"/>
				<path style="fill:#FFFFFF;" d="M1055.5-403.8v1.2h0.7v-2.2h-1c-0.3,0-0.6-0.3-0.6-0.6v-2.6c0-0.3,0.2-0.6,0.6-0.6h1.3
					c0.3,0,0.6,0.2,0.6,0.6v1.4h-0.9v-1.1h-0.7v2h1c0.3,0,0.6,0.3,0.6,0.6v2.8c0,0.3-0.3,0.6-0.6,0.6h-1.3c-0.3,0-0.6-0.3-0.6-0.6
					v-1.5L1055.5-403.8L1055.5-403.8z"/>
				<path style="fill:#FFFFFF;" d="M1060.1-407.6h-0.8v-0.9h2.4v0.9h-0.8v6h-0.9v-6H1060.1z"/>
				<path style="fill:#FFFFFF;" d="M1063.3-402.6h0.9v0.9h-0.9V-402.6z"/>
			</g>
			<g>
				<path style="fill:#FFFFFF;" d="M1062.5-368.1l1.6,2.2h-1l-1.5-2.2h-0.1v2.2h-0.8v-5.3h0.9c0.7,0,1.2,0.1,1.5,0.4
					c0.3,0.3,0.5,0.7,0.5,1.2c0,0.4-0.1,0.7-0.3,1C1063.2-368.3,1062.9-368.1,1062.5-368.1z M1061.5-368.7h0.3
					c0.8,0,1.1-0.3,1.1-0.9c0-0.5-0.4-0.8-1.1-0.8h-0.3V-368.7L1061.5-368.7z"/>
				<path style="fill:#FFFFFF;" d="M1066.9-371.1v3.2c0,0.5,0.1,0.8,0.2,1c0.2,0.3,0.5,0.5,0.9,0.5c0.4,0,0.7-0.2,0.9-0.5
					c0.1-0.2,0.2-0.5,0.2-1v-3.2h0.8v3.4c0,0.6-0.2,1-0.5,1.4c-0.4,0.4-0.9,0.6-1.4,0.6c-0.6,0-1-0.2-1.4-0.6
					c-0.3-0.4-0.5-0.8-0.5-1.4v-3.4H1066.9z"/>
				<path style="fill:#FFFFFF;" d="M1072.4-365.8v-5.3h0.8c0.4,0,0.6,0,0.8,0.1s0.4,0.1,0.5,0.3c0.1,0.1,0.3,0.3,0.4,0.5
					s0.1,0.4,0.1,0.6c0,0.4-0.1,0.7-0.4,1c0.3,0.1,0.5,0.3,0.7,0.5c0.2,0.2,0.2,0.5,0.2,0.8c0,0.4-0.1,0.8-0.4,1
					c-0.2,0.2-0.4,0.3-0.6,0.4s-0.5,0.1-0.9,0.1H1072.4z M1073.2-368.8h0.2c0.3,0,0.5-0.1,0.7-0.2c0.2-0.1,0.2-0.3,0.2-0.6
					c0-0.2-0.1-0.4-0.2-0.6c-0.1-0.1-0.3-0.2-0.6-0.2h-0.3L1073.2-368.8L1073.2-368.8z M1073.2-366.6h0.5c0.4,0,0.6-0.1,0.8-0.2
					c0.2-0.2,0.3-0.3,0.3-0.6c0-0.2-0.1-0.4-0.3-0.6s-0.5-0.2-0.9-0.2h-0.4V-366.6L1073.2-366.6z"/>
				<path style="fill:#FFFFFF;" d="M1078.6-371.1v5.3h-0.8v-5.3H1078.6z"/>
				<path style="fill:#FFFFFF;" d="M1081.8-369l2.1-2.1h1.1l-2.4,2.4l2.4,2.9h-1.1l-1.9-2.3l-0.2,0.2v2.2h-0.8v-5.3h0.8V-369
					L1081.8-369z"/>
				<path style="fill:#FFFFFF;" d="M1087.4-371.3l0.7,0.3l-1,2l-0.5-0.2L1087.4-371.3z"/>
				<path style="fill:#FFFFFF;" d="M1093.3-370.3l-0.6,0.4c-0.1-0.2-0.2-0.3-0.3-0.4s-0.3-0.1-0.4-0.1c-0.2,0-0.4,0.1-0.5,0.2
					s-0.2,0.3-0.2,0.5c0,0.3,0.2,0.5,0.6,0.6l0.5,0.2c0.4,0.2,0.7,0.4,0.9,0.6c0.2,0.2,0.3,0.6,0.3,0.9c0,0.5-0.2,0.9-0.5,1.2
					c-0.3,0.3-0.7,0.5-1.2,0.5s-0.8-0.1-1.1-0.4c-0.3-0.3-0.5-0.7-0.5-1.1l0.8-0.2c0,0.3,0.1,0.5,0.2,0.6c0.2,0.2,0.4,0.3,0.7,0.3
					c0.2,0,0.5-0.1,0.6-0.2s0.2-0.4,0.2-0.6c0-0.1,0-0.2,0-0.3c0-0.1-0.1-0.2-0.1-0.2c-0.1-0.1-0.1-0.1-0.2-0.2s-0.2-0.1-0.3-0.2
					l-0.5-0.2c-0.7-0.3-1.1-0.8-1.1-1.3c0-0.4,0.2-0.7,0.5-1c0.3-0.3,0.7-0.4,1.1-0.4C1092.5-371.2,1093-370.9,1093.3-370.3z"/>
				<path style="fill:#FFFFFF;" d="M1099.7-368v2.1h-0.8v-5.3h0.9c0.4,0,0.8,0,1,0.1s0.4,0.2,0.6,0.3c0.3,0.3,0.5,0.7,0.5,1.1
					c0,0.5-0.2,0.9-0.5,1.1c-0.3,0.3-0.8,0.4-1.3,0.4L1099.7-368L1099.7-368z M1099.7-368.7h0.3c0.7,0,1.1-0.3,1.1-0.8
					s-0.4-0.8-1.1-0.8h-0.3V-368.7L1099.7-368.7z"/>
				<path style="fill:#FFFFFF;" d="M1104.7-371.1v3.2c0,0.5,0.1,0.8,0.2,1c0.2,0.3,0.5,0.5,0.9,0.5s0.7-0.2,0.9-0.5
					c0.1-0.2,0.2-0.5,0.2-1v-3.2h0.8v3.4c0,0.6-0.2,1-0.5,1.4c-0.4,0.4-0.9,0.6-1.4,0.6c-0.6,0-1-0.2-1.4-0.6
					c-0.3-0.4-0.5-0.8-0.5-1.4v-3.4H1104.7z"/>
				<path style="fill:#FFFFFF;" d="M1111.2-366.6h2.5v0.7h-3.8l2.6-4.5h-2.2v-0.7h3.5L1111.2-366.6z"/>
				<path style="fill:#FFFFFF;" d="M1116.8-366.6h2.5v0.7h-3.8l2.6-4.5h-2.2v-0.7h3.5L1116.8-366.6z"/>
				<path style="fill:#FFFFFF;" d="M1122.2-371.1v4.5h1.6v0.7h-2.3v-5.3h0.7V-371.1z"/>
				<path style="fill:#FFFFFF;" d="M1128.6-370.3h-2.1v1.3h2.1v0.7h-2.1v1.8h2.1v0.7h-2.9v-5.3h2.9V-370.3z"/>
			</g>
			<g>
				<g>
					<path style="fill:#FFFFFF;" d="M1063.6-453.2c1.2,0,1.7,0,2.9,0c0,4.1,0,6.1,0,10.2c1-0.1,1.5-0.1,2.4-0.2c0-4,0-6,0-10.1
						c1.2,0,1.7,0,2.9,0c0,8.6,0,12.9,0,21.4c-1.2,0.1-1.7,0.2-2.9,0.4c0-3.6,0-5.4,0-8.9c-1,0.1-1.5,0.1-2.4,0.2c0,3.6,0,5.4,0,9.1
						c-1.2,0.2-1.7,0.3-2.9,0.4C1063.6-439.7,1063.6-444.2,1063.6-453.2z"/>
					<path style="fill:#FFFFFF;" d="M1074.4-453.2c1.2,0,1.7,0,2.9,0c0,8.3,0,12.5,0,20.9c-1.2,0.1-1.7,0.2-2.9,0.3
						C1074.4-440.5,1074.4-444.8,1074.4-453.2z"/>
					<path style="fill:#FFFFFF;" d="M1079.9-453.2c2.5,0,3.8,0,6.3,0c1.1,0,1.9,0.8,1.9,1.7c0,3,0,4.5,0,7.6c0,0.9-0.9,1.7-1.9,1.7
						c-1.4,0-2.1,0.1-3.4,0.1c0,3.7,0,5.6,0,9.3c-1.2,0.1-1.7,0.1-2.9,0.2c0-3.8,0-5.6,0-9.4
						C1079.9-446.5,1079.9-448.7,1079.9-453.2z M1085.2-450.6c-1,0-1.5,0-2.5,0c0,2.4,0,3.5,0,5.9c1,0,1.5,0,2.5-0.1
						C1085.2-447.1,1085.2-448.3,1085.2-450.6z"/>
					<path style="fill:#FFFFFF;" d="M1093-439.2c0,1.4,0,2.1,0,3.5c1,0,1.5,0,2.5,0c0-2.6,0-3.9,0-6.5c-1.4,0-2.1,0-3.4,0
						c-1.1,0-1.9-0.8-1.9-1.7c0-3,0-4.6,0-7.6c0-1,0.8-1.7,1.9-1.7c1.8,0,2.6,0,4.4,0c1.1,0,1.9,0.7,1.9,1.7c0,1.7,0,2.5,0,4.2
						c-1.2,0-1.7,0-2.9,0c0-1.3,0-2,0-3.3c-1,0-1.5,0-2.5,0c0,2.3,0,3.5,0,5.8c1.4,0,2.1,0,3.4,0c1.1,0,1.9,0.8,1.9,1.7
						c0,3.3,0,4.9,0,8.2c0,0.9-0.9,1.7-1.9,1.7c-1.8,0-2.6,0-4.4,0c-1,0-1.9-0.7-1.9-1.7c0-1.7,0-2.6,0-4.4
						C1091.2-439.2,1091.8-439.2,1093-439.2z"/>
					<path style="fill:#FFFFFF;" d="M1102.5-450.6c-1,0-1.5,0-2.6,0c0-1,0-1.5,0-2.6c3.2,0,4.8,0,8.1,0c0,1.1,0,1.6,0,2.6
						c-1,0-1.5,0-2.6,0c0,7.1,0,10.6,0,17.7c-1.2-0.1-1.7-0.1-2.9-0.1C1102.5-440.1,1102.5-443.6,1102.5-450.6z"/>
					<path style="fill:#FFFFFF;" d="M1117.1-432c-3-0.3-4.5-0.4-7.5-0.7c0-8.2,0-12.3,0-20.5c2.9,0,4.4,0,7.3,0c0,1.1,0,1.6,0,2.7
						c-1.7,0-2.6,0-4.4-0.1c0,2.3,0,3.4,0,5.7c1.2,0,1.8,0.1,3.1,0.1c0,1.1,0,1.6,0,2.7c-1.2-0.1-1.8-0.1-3.1-0.1c0,2.8,0,4.2,0,7
						c1.8,0.1,2.7,0.2,4.6,0.4C1117.1-433.7,1117.1-433.1,1117.1-432z"/>
					<path style="fill:#FFFFFF;" d="M1124.7-440.5c-1-0.1-1.5-0.1-2.4-0.2c0,3.7,0,5.5,0,9.2c-1.2-0.2-1.7-0.2-2.9-0.4
						c0-8.6,0-12.9,0-21.4c2.4,0,3.6,0,6,0c1.1,0,1.9,0.9,1.9,1.9c0,3.1,0,4.7,0,7.8c0,0.8-1,1.5-1,1.5s1.4,1.2,1.4,2
						c0,3.7,0,5.6,0,9.3c-1.2-0.2-1.7-0.3-2.9-0.4C1124.7-434.8,1124.7-436.7,1124.7-440.5z M1122.3-443.5c0.8,0,1.3,0.1,2.1,0.1
						c0-2.8,0-4.2,0-7c-0.8,0-1.3,0-2.1,0C1122.2-447.6,1122.3-446.2,1122.3-443.5z"/>
				</g>
			</g>
		</g>
	</g>
</g>
</svg>
